(kicad_pcb (version 20171130) (host pcbnew "(5.0.0-rc2-dev-620-g5d71153ea)")

  (general
    (thickness 1.6)
    (drawings 20)
    (tracks 81)
    (zones 0)
    (modules 8)
    (nets 21)
  )

  (page A4)
  (layers
    (0 F.Cu signal)
    (31 B.Cu signal)
    (32 B.Adhes user)
    (33 F.Adhes user)
    (34 B.Paste user)
    (35 F.Paste user)
    (36 B.SilkS user)
    (37 F.SilkS user)
    (38 B.Mask user)
    (39 F.Mask user)
    (40 Dwgs.User user)
    (41 Cmts.User user)
    (42 Eco1.User user)
    (43 Eco2.User user)
    (44 Edge.Cuts user)
    (45 Margin user)
    (46 B.CrtYd user)
    (47 F.CrtYd user)
    (48 B.Fab user)
    (49 F.Fab user)
  )

  (setup
    (last_trace_width 0.4)
    (trace_clearance 0.2)
    (zone_clearance 0.508)
    (zone_45_only no)
    (trace_min 0.2)
    (segment_width 0.2)
    (edge_width 0.2)
    (via_size 1.8)
    (via_drill 0.55)
    (via_min_size 0.4)
    (via_min_drill 0.3)
    (uvia_size 0.3)
    (uvia_drill 0.1)
    (uvias_allowed no)
    (uvia_min_size 0.2)
    (uvia_min_drill 0.1)
    (pcb_text_width 0.3)
    (pcb_text_size 1.5 1.5)
    (mod_edge_width 0.15)
    (mod_text_size 1 1)
    (mod_text_width 0.15)
    (pad_size 1.524 1.524)
    (pad_drill 0.762)
    (pad_to_mask_clearance 0.2)
    (aux_axis_origin 0 0)
    (visible_elements FFFFFF7F)
    (pcbplotparams
      (layerselection 0x010fc_ffffffff)
      (usegerberextensions false)
      (usegerberattributes false)
      (usegerberadvancedattributes false)
      (creategerberjobfile false)
      (excludeedgelayer true)
      (linewidth 0.100000)
      (plotframeref false)
      (viasonmask false)
      (mode 1)
      (useauxorigin false)
      (hpglpennumber 1)
      (hpglpenspeed 20)
      (hpglpendiameter 15)
      (psnegative false)
      (psa4output false)
      (plotreference true)
      (plotvalue true)
      (plotinvisibletext false)
      (padsonsilk false)
      (subtractmaskfromsilk false)
      (outputformat 1)
      (mirror false)
      (drillshape 0)
      (scaleselection 1)
      (outputdirectory compute-node-revb/))
  )

  (net 0 "")
  (net 1 "Net-(U1-Pad1)")
  (net 2 VDD)
  (net 3 "Net-(U1-Pad3)")
  (net 4 GND)
  (net 5 "Net-(U1-Pad6)")
  (net 6 "Net-(U1-Pad12)")
  (net 7 "Net-(U1-Pad13)")
  (net 8 "Net-(J1-Pad2)")
  (net 9 "Net-(C1-Pad1)")
  (net 10 "Net-(U1-Pad2)")
  (net 11 "Net-(J2-Pad4)")
  (net 12 "Net-(J2-Pad3)")
  (net 13 "Net-(J1-Pad5)")
  (net 14 "Net-(J2-Pad1)")
  (net 15 "Net-(J2-Pad2)")
  (net 16 "Net-(J1-Pad4)")
  (net 17 "Net-(U1-Pad8)")
  (net 18 "Net-(U1-Pad9)")
  (net 19 /TX)
  (net 20 /RX)

  (net_class Default "This is the default net class."
    (clearance 0.2)
    (trace_width 0.4)
    (via_dia 1.8)
    (via_drill 0.55)
    (uvia_dia 0.3)
    (uvia_drill 0.1)
    (add_net /RX)
    (add_net /TX)
    (add_net GND)
    (add_net "Net-(C1-Pad1)")
    (add_net "Net-(J1-Pad2)")
    (add_net "Net-(J1-Pad4)")
    (add_net "Net-(J1-Pad5)")
    (add_net "Net-(J2-Pad1)")
    (add_net "Net-(J2-Pad2)")
    (add_net "Net-(J2-Pad3)")
    (add_net "Net-(J2-Pad4)")
    (add_net "Net-(U1-Pad1)")
    (add_net "Net-(U1-Pad12)")
    (add_net "Net-(U1-Pad13)")
    (add_net "Net-(U1-Pad2)")
    (add_net "Net-(U1-Pad3)")
    (add_net "Net-(U1-Pad6)")
    (add_net "Net-(U1-Pad8)")
    (add_net "Net-(U1-Pad9)")
    (add_net VDD)
  )

  (module Resistor_SMD:R_0603_1608Metric_Pad0.99x1.00mm_HandSolder (layer F.Cu) (tedit 5AC5DB74) (tstamp 5B1E6EA9)
    (at 149.86 138.8125 90)
    (descr "Resistor SMD 0603 (1608 Metric), square (rectangular) end terminal, IPC_7351 nominal with elongated pad for handsoldering. (Body size source: http://www.tortai-tech.com/upload/download/2011102023233369053.pdf), generated with kicad-footprint-generator")
    (tags "resistor handsolder")
    (path /5B1D556B)
    (attr smd)
    (fp_text reference R1 (at 0 1.27 90) (layer F.SilkS)
      (effects (font (size 1 1) (thickness 0.15)))
    )
    (fp_text value 4.7K (at 0 1.45 90) (layer F.Fab)
      (effects (font (size 1 1) (thickness 0.15)))
    )
    (fp_line (start -0.8 0.4) (end -0.8 -0.4) (layer F.Fab) (width 0.1))
    (fp_line (start -0.8 -0.4) (end 0.8 -0.4) (layer F.Fab) (width 0.1))
    (fp_line (start 0.8 -0.4) (end 0.8 0.4) (layer F.Fab) (width 0.1))
    (fp_line (start 0.8 0.4) (end -0.8 0.4) (layer F.Fab) (width 0.1))
    (fp_line (start -1.64 0.75) (end -1.64 -0.75) (layer F.CrtYd) (width 0.05))
    (fp_line (start -1.64 -0.75) (end 1.64 -0.75) (layer F.CrtYd) (width 0.05))
    (fp_line (start 1.64 -0.75) (end 1.64 0.75) (layer F.CrtYd) (width 0.05))
    (fp_line (start 1.64 0.75) (end -1.64 0.75) (layer F.CrtYd) (width 0.05))
    (fp_text user %R (at 0 0 90) (layer F.Fab)
      (effects (font (size 0.4 0.4) (thickness 0.06)))
    )
    (pad 1 smd rect (at -0.8875 0 90) (size 0.995 1) (layers F.Cu F.Paste F.Mask)
      (net 20 /RX))
    (pad 2 smd rect (at 0.8875 0 90) (size 0.995 1) (layers F.Cu F.Paste F.Mask)
      (net 2 VDD))
    (model ${KISYS3DMOD}/Resistor_SMD.3dshapes/R_0603_1608Metric.wrl
      (at (xyz 0 0 0))
      (scale (xyz 1 1 1))
      (rotate (xyz 0 0 0))
    )
  )

  (module Capacitor_SMD:C_0603_1608Metric_Pad0.99x1.00mm_HandSolder (layer F.Cu) (tedit 5AC5DB74) (tstamp 5AF7F7B4)
    (at 133.35 139.7 90)
    (descr "Capacitor SMD 0603 (1608 Metric), square (rectangular) end terminal, IPC_7351 nominal with elongated pad for handsoldering. (Body size source: http://www.tortai-tech.com/upload/download/2011102023233369053.pdf), generated with kicad-footprint-generator")
    (tags "capacitor handsolder")
    (path /5AF03E07)
    (attr smd)
    (fp_text reference C3 (at 0 -1.45 90) (layer F.SilkS)
      (effects (font (size 1 1) (thickness 0.15)))
    )
    (fp_text value 10nF (at 0 1.45 90) (layer F.Fab)
      (effects (font (size 1 1) (thickness 0.15)))
    )
    (fp_line (start -0.8 0.4) (end -0.8 -0.4) (layer F.Fab) (width 0.1))
    (fp_line (start -0.8 -0.4) (end 0.8 -0.4) (layer F.Fab) (width 0.1))
    (fp_line (start 0.8 -0.4) (end 0.8 0.4) (layer F.Fab) (width 0.1))
    (fp_line (start 0.8 0.4) (end -0.8 0.4) (layer F.Fab) (width 0.1))
    (fp_line (start -1.64 0.75) (end -1.64 -0.75) (layer F.CrtYd) (width 0.05))
    (fp_line (start -1.64 -0.75) (end 1.64 -0.75) (layer F.CrtYd) (width 0.05))
    (fp_line (start 1.64 -0.75) (end 1.64 0.75) (layer F.CrtYd) (width 0.05))
    (fp_line (start 1.64 0.75) (end -1.64 0.75) (layer F.CrtYd) (width 0.05))
    (fp_text user %R (at 0 0 90) (layer F.Fab)
      (effects (font (size 0.4 0.4) (thickness 0.06)))
    )
    (pad 1 smd rect (at -0.8875 0 90) (size 0.995 1) (layers F.Cu F.Paste F.Mask)
      (net 4 GND))
    (pad 2 smd rect (at 0.8875 0 90) (size 0.995 1) (layers F.Cu F.Paste F.Mask)
      (net 2 VDD))
    (model ${KISYS3DMOD}/Capacitor_SMD.3dshapes/C_0603_1608Metric.wrl
      (at (xyz 0 0 0))
      (scale (xyz 1 1 1))
      (rotate (xyz 0 0 0))
    )
  )

  (module Capacitor_SMD:C_0603_1608Metric_Pad0.99x1.00mm_HandSolder (layer F.Cu) (tedit 5AC5DB74) (tstamp 5B1E7561)
    (at 149.86 134.62)
    (descr "Capacitor SMD 0603 (1608 Metric), square (rectangular) end terminal, IPC_7351 nominal with elongated pad for handsoldering. (Body size source: http://www.tortai-tech.com/upload/download/2011102023233369053.pdf), generated with kicad-footprint-generator")
    (tags "capacitor handsolder")
    (path /5AF03B4F)
    (attr smd)
    (fp_text reference C2 (at 2.54 0 90) (layer F.SilkS)
      (effects (font (size 1 1) (thickness 0.15)))
    )
    (fp_text value 100nF (at 0 1.45) (layer F.Fab)
      (effects (font (size 1 1) (thickness 0.15)))
    )
    (fp_text user %R (at 0 0) (layer F.Fab)
      (effects (font (size 0.4 0.4) (thickness 0.06)))
    )
    (fp_line (start 1.64 0.75) (end -1.64 0.75) (layer F.CrtYd) (width 0.05))
    (fp_line (start 1.64 -0.75) (end 1.64 0.75) (layer F.CrtYd) (width 0.05))
    (fp_line (start -1.64 -0.75) (end 1.64 -0.75) (layer F.CrtYd) (width 0.05))
    (fp_line (start -1.64 0.75) (end -1.64 -0.75) (layer F.CrtYd) (width 0.05))
    (fp_line (start 0.8 0.4) (end -0.8 0.4) (layer F.Fab) (width 0.1))
    (fp_line (start 0.8 -0.4) (end 0.8 0.4) (layer F.Fab) (width 0.1))
    (fp_line (start -0.8 -0.4) (end 0.8 -0.4) (layer F.Fab) (width 0.1))
    (fp_line (start -0.8 0.4) (end -0.8 -0.4) (layer F.Fab) (width 0.1))
    (pad 2 smd rect (at 0.8875 0) (size 0.995 1) (layers F.Cu F.Paste F.Mask)
      (net 9 "Net-(C1-Pad1)"))
    (pad 1 smd rect (at -0.8875 0) (size 0.995 1) (layers F.Cu F.Paste F.Mask)
      (net 2 VDD))
    (model ${KISYS3DMOD}/Capacitor_SMD.3dshapes/C_0603_1608Metric.wrl
      (at (xyz 0 0 0))
      (scale (xyz 1 1 1))
      (rotate (xyz 0 0 0))
    )
  )

  (module Capacitor_SMD:C_0603_1608Metric_Pad0.99x1.00mm_HandSolder (layer F.Cu) (tedit 5AC5DB74) (tstamp 5AF7F852)
    (at 149.86 132.08 180)
    (descr "Capacitor SMD 0603 (1608 Metric), square (rectangular) end terminal, IPC_7351 nominal with elongated pad for handsoldering. (Body size source: http://www.tortai-tech.com/upload/download/2011102023233369053.pdf), generated with kicad-footprint-generator")
    (tags "capacitor handsolder")
    (path /5AF03BE4)
    (attr smd)
    (fp_text reference C1 (at -2.54 0 270) (layer F.SilkS)
      (effects (font (size 1 1) (thickness 0.15)))
    )
    (fp_text value 100nF (at 0 1.45 180) (layer F.Fab)
      (effects (font (size 1 1) (thickness 0.15)))
    )
    (fp_line (start -0.8 0.4) (end -0.8 -0.4) (layer F.Fab) (width 0.1))
    (fp_line (start -0.8 -0.4) (end 0.8 -0.4) (layer F.Fab) (width 0.1))
    (fp_line (start 0.8 -0.4) (end 0.8 0.4) (layer F.Fab) (width 0.1))
    (fp_line (start 0.8 0.4) (end -0.8 0.4) (layer F.Fab) (width 0.1))
    (fp_line (start -1.64 0.75) (end -1.64 -0.75) (layer F.CrtYd) (width 0.05))
    (fp_line (start -1.64 -0.75) (end 1.64 -0.75) (layer F.CrtYd) (width 0.05))
    (fp_line (start 1.64 -0.75) (end 1.64 0.75) (layer F.CrtYd) (width 0.05))
    (fp_line (start 1.64 0.75) (end -1.64 0.75) (layer F.CrtYd) (width 0.05))
    (fp_text user %R (at 0 0 180) (layer F.Fab)
      (effects (font (size 0.4 0.4) (thickness 0.06)))
    )
    (pad 1 smd rect (at -0.8875 0 180) (size 0.995 1) (layers F.Cu F.Paste F.Mask)
      (net 9 "Net-(C1-Pad1)"))
    (pad 2 smd rect (at 0.8875 0 180) (size 0.995 1) (layers F.Cu F.Paste F.Mask)
      (net 4 GND))
    (model ${KISYS3DMOD}/Capacitor_SMD.3dshapes/C_0603_1608Metric.wrl
      (at (xyz 0 0 0))
      (scale (xyz 1 1 1))
      (rotate (xyz 0 0 0))
    )
  )

  (module Connector_PinHeader_2.54mm:PinHeader_1x02_P2.54mm_Vertical (layer F.Cu) (tedit 59FED5CC) (tstamp 5AF7F51C)
    (at 129.54 142.24)
    (descr "Through hole straight pin header, 1x02, 2.54mm pitch, single row")
    (tags "Through hole pin header THT 1x02 2.54mm single row")
    (path /5AF1CC4F)
    (fp_text reference J3 (at -2.54 1.27 90) (layer F.SilkS)
      (effects (font (size 1 1) (thickness 0.15)))
    )
    (fp_text value UART (at 0 4.87) (layer F.Fab)
      (effects (font (size 1 1) (thickness 0.15)))
    )
    (fp_line (start -0.635 -1.27) (end 1.27 -1.27) (layer F.Fab) (width 0.1))
    (fp_line (start 1.27 -1.27) (end 1.27 3.81) (layer F.Fab) (width 0.1))
    (fp_line (start 1.27 3.81) (end -1.27 3.81) (layer F.Fab) (width 0.1))
    (fp_line (start -1.27 3.81) (end -1.27 -0.635) (layer F.Fab) (width 0.1))
    (fp_line (start -1.27 -0.635) (end -0.635 -1.27) (layer F.Fab) (width 0.1))
    (fp_line (start -1.33 3.87) (end 1.33 3.87) (layer F.SilkS) (width 0.12))
    (fp_line (start -1.33 1.27) (end -1.33 3.87) (layer F.SilkS) (width 0.12))
    (fp_line (start 1.33 1.27) (end 1.33 3.87) (layer F.SilkS) (width 0.12))
    (fp_line (start -1.33 1.27) (end 1.33 1.27) (layer F.SilkS) (width 0.12))
    (fp_line (start -1.33 0) (end -1.33 -1.33) (layer F.SilkS) (width 0.12))
    (fp_line (start -1.33 -1.33) (end 0 -1.33) (layer F.SilkS) (width 0.12))
    (fp_line (start -1.8 -1.8) (end -1.8 4.35) (layer F.CrtYd) (width 0.05))
    (fp_line (start -1.8 4.35) (end 1.8 4.35) (layer F.CrtYd) (width 0.05))
    (fp_line (start 1.8 4.35) (end 1.8 -1.8) (layer F.CrtYd) (width 0.05))
    (fp_line (start 1.8 -1.8) (end -1.8 -1.8) (layer F.CrtYd) (width 0.05))
    (fp_text user %R (at 0 1.27 90) (layer F.Fab)
      (effects (font (size 1 1) (thickness 0.15)))
    )
    (pad 1 thru_hole rect (at 0 0) (size 1.7 1.7) (drill 1) (layers *.Cu *.Mask)
      (net 19 /TX))
    (pad 2 thru_hole oval (at 0 2.54) (size 1.7 1.7) (drill 1) (layers *.Cu *.Mask)
      (net 20 /RX))
    (model ${KISYS3DMOD}/Connector_PinHeader_2.54mm.3dshapes/PinHeader_1x02_P2.54mm_Vertical.wrl
      (at (xyz 0 0 0))
      (scale (xyz 1 1 1))
      (rotate (xyz 0 0 0))
    )
  )

  (module Connector_PinHeader_2.54mm:PinHeader_1x04_P2.54mm_Vertical (layer B.Cu) (tedit 59FED5CC) (tstamp 5AF7E9AE)
    (at 134.62 149.86 270)
    (descr "Through hole straight pin header, 1x04, 2.54mm pitch, single row")
    (tags "Through hole pin header THT 1x04 2.54mm single row")
    (path /5AF32062)
    (fp_text reference J2 (at 0 2.33 270) (layer B.SilkS)
      (effects (font (size 1 1) (thickness 0.15)) (justify mirror))
    )
    (fp_text value PicoTalk (at 0 -9.95 270) (layer B.Fab)
      (effects (font (size 1 1) (thickness 0.15)) (justify mirror))
    )
    (fp_line (start -0.635 1.27) (end 1.27 1.27) (layer B.Fab) (width 0.1))
    (fp_line (start 1.27 1.27) (end 1.27 -8.89) (layer B.Fab) (width 0.1))
    (fp_line (start 1.27 -8.89) (end -1.27 -8.89) (layer B.Fab) (width 0.1))
    (fp_line (start -1.27 -8.89) (end -1.27 0.635) (layer B.Fab) (width 0.1))
    (fp_line (start -1.27 0.635) (end -0.635 1.27) (layer B.Fab) (width 0.1))
    (fp_line (start -1.33 -8.95) (end 1.33 -8.95) (layer B.SilkS) (width 0.12))
    (fp_line (start -1.33 -1.27) (end -1.33 -8.95) (layer B.SilkS) (width 0.12))
    (fp_line (start 1.33 -1.27) (end 1.33 -8.95) (layer B.SilkS) (width 0.12))
    (fp_line (start -1.33 -1.27) (end 1.33 -1.27) (layer B.SilkS) (width 0.12))
    (fp_line (start -1.33 0) (end -1.33 1.33) (layer B.SilkS) (width 0.12))
    (fp_line (start -1.33 1.33) (end 0 1.33) (layer B.SilkS) (width 0.12))
    (fp_line (start -1.8 1.8) (end -1.8 -9.4) (layer B.CrtYd) (width 0.05))
    (fp_line (start -1.8 -9.4) (end 1.8 -9.4) (layer B.CrtYd) (width 0.05))
    (fp_line (start 1.8 -9.4) (end 1.8 1.8) (layer B.CrtYd) (width 0.05))
    (fp_line (start 1.8 1.8) (end -1.8 1.8) (layer B.CrtYd) (width 0.05))
    (fp_text user %R (at 0 -3.81 180) (layer B.Fab)
      (effects (font (size 1 1) (thickness 0.15)) (justify mirror))
    )
    (pad 1 thru_hole rect (at 0 0 270) (size 1.7 1.7) (drill 1) (layers *.Cu *.Mask)
      (net 14 "Net-(J2-Pad1)"))
    (pad 2 thru_hole oval (at 0 -2.54 270) (size 1.7 1.7) (drill 1) (layers *.Cu *.Mask)
      (net 15 "Net-(J2-Pad2)"))
    (pad 3 thru_hole oval (at 0 -5.08 270) (size 1.7 1.7) (drill 1) (layers *.Cu *.Mask)
      (net 12 "Net-(J2-Pad3)"))
    (pad 4 thru_hole oval (at 0 -7.62 270) (size 1.7 1.7) (drill 1) (layers *.Cu *.Mask)
      (net 11 "Net-(J2-Pad4)"))
    (model ${KISYS3DMOD}/Connector_PinHeader_2.54mm.3dshapes/PinHeader_1x04_P2.54mm_Vertical.wrl
      (at (xyz 0 0 0))
      (scale (xyz 1 1 1))
      (rotate (xyz 0 0 0))
    )
  )

  (module Connector_PinHeader_2.54mm:PinHeader_1x05_P2.54mm_Vertical (layer B.Cu) (tedit 59FED5CC) (tstamp 5AF7E913)
    (at 134.62 133.33 270)
    (descr "Through hole straight pin header, 1x05, 2.54mm pitch, single row")
    (tags "Through hole pin header THT 1x05 2.54mm single row")
    (path /5AF31E07)
    (fp_text reference J1 (at 0 2.33 270) (layer B.SilkS)
      (effects (font (size 1 1) (thickness 0.15)) (justify mirror))
    )
    (fp_text value STM32_SWD (at 0 -12.49 270) (layer B.Fab)
      (effects (font (size 1 1) (thickness 0.15)) (justify mirror))
    )
    (fp_line (start -0.635 1.27) (end 1.27 1.27) (layer B.Fab) (width 0.1))
    (fp_line (start 1.27 1.27) (end 1.27 -11.43) (layer B.Fab) (width 0.1))
    (fp_line (start 1.27 -11.43) (end -1.27 -11.43) (layer B.Fab) (width 0.1))
    (fp_line (start -1.27 -11.43) (end -1.27 0.635) (layer B.Fab) (width 0.1))
    (fp_line (start -1.27 0.635) (end -0.635 1.27) (layer B.Fab) (width 0.1))
    (fp_line (start -1.33 -11.49) (end 1.33 -11.49) (layer B.SilkS) (width 0.12))
    (fp_line (start -1.33 -1.27) (end -1.33 -11.49) (layer B.SilkS) (width 0.12))
    (fp_line (start 1.33 -1.27) (end 1.33 -11.49) (layer B.SilkS) (width 0.12))
    (fp_line (start -1.33 -1.27) (end 1.33 -1.27) (layer B.SilkS) (width 0.12))
    (fp_line (start -1.33 0) (end -1.33 1.33) (layer B.SilkS) (width 0.12))
    (fp_line (start -1.33 1.33) (end 0 1.33) (layer B.SilkS) (width 0.12))
    (fp_line (start -1.8 1.8) (end -1.8 -11.95) (layer B.CrtYd) (width 0.05))
    (fp_line (start -1.8 -11.95) (end 1.8 -11.95) (layer B.CrtYd) (width 0.05))
    (fp_line (start 1.8 -11.95) (end 1.8 1.8) (layer B.CrtYd) (width 0.05))
    (fp_line (start 1.8 1.8) (end -1.8 1.8) (layer B.CrtYd) (width 0.05))
    (fp_text user %R (at 0 -5.08 180) (layer B.Fab)
      (effects (font (size 1 1) (thickness 0.15)) (justify mirror))
    )
    (pad 1 thru_hole rect (at 0 0 270) (size 1.7 1.7) (drill 1) (layers *.Cu *.Mask)
      (net 2 VDD))
    (pad 2 thru_hole oval (at 0 -2.54 270) (size 1.7 1.7) (drill 1) (layers *.Cu *.Mask)
      (net 8 "Net-(J1-Pad2)"))
    (pad 3 thru_hole oval (at 0 -5.08 270) (size 1.7 1.7) (drill 1) (layers *.Cu *.Mask)
      (net 4 GND))
    (pad 4 thru_hole oval (at 0 -7.62 270) (size 1.7 1.7) (drill 1) (layers *.Cu *.Mask)
      (net 16 "Net-(J1-Pad4)"))
    (pad 5 thru_hole oval (at 0 -10.16 270) (size 1.7 1.7) (drill 1) (layers *.Cu *.Mask)
      (net 13 "Net-(J1-Pad5)"))
    (model ${KISYS3DMOD}/Connector_PinHeader_2.54mm.3dshapes/PinHeader_1x05_P2.54mm_Vertical.wrl
      (at (xyz 0 0 0))
      (scale (xyz 1 1 1))
      (rotate (xyz 0 0 0))
    )
  )

  (module Package_SO:TSSOP-20_4.4x6.5mm_P0.65mm (layer F.Cu) (tedit 5A02F25C) (tstamp 5AF7E9FF)
    (at 139.7 142.24)
    (descr "20-Lead Plastic Thin Shrink Small Outline (ST)-4.4 mm Body [TSSOP] (see Microchip Packaging Specification 00000049BS.pdf)")
    (tags "SSOP 0.65")
    (path /5AF03934)
    (attr smd)
    (fp_text reference U1 (at -2.54 -4.3) (layer F.SilkS)
      (effects (font (size 1 1) (thickness 0.15)))
    )
    (fp_text value STM32F030F4Px (at 0 4.3) (layer F.Fab)
      (effects (font (size 1 1) (thickness 0.15)))
    )
    (fp_line (start -1.2 -3.25) (end 2.2 -3.25) (layer F.Fab) (width 0.15))
    (fp_line (start 2.2 -3.25) (end 2.2 3.25) (layer F.Fab) (width 0.15))
    (fp_line (start 2.2 3.25) (end -2.2 3.25) (layer F.Fab) (width 0.15))
    (fp_line (start -2.2 3.25) (end -2.2 -2.25) (layer F.Fab) (width 0.15))
    (fp_line (start -2.2 -2.25) (end -1.2 -3.25) (layer F.Fab) (width 0.15))
    (fp_line (start -3.95 -3.55) (end -3.95 3.55) (layer F.CrtYd) (width 0.05))
    (fp_line (start 3.95 -3.55) (end 3.95 3.55) (layer F.CrtYd) (width 0.05))
    (fp_line (start -3.95 -3.55) (end 3.95 -3.55) (layer F.CrtYd) (width 0.05))
    (fp_line (start -3.95 3.55) (end 3.95 3.55) (layer F.CrtYd) (width 0.05))
    (fp_line (start -2.225 3.45) (end 2.225 3.45) (layer F.SilkS) (width 0.15))
    (fp_line (start -3.75 -3.45) (end 2.225 -3.45) (layer F.SilkS) (width 0.15))
    (fp_text user %R (at 0 0) (layer F.Fab)
      (effects (font (size 0.8 0.8) (thickness 0.15)))
    )
    (pad 1 smd rect (at -2.95 -2.925) (size 1.45 0.45) (layers F.Cu F.Paste F.Mask)
      (net 1 "Net-(U1-Pad1)"))
    (pad 2 smd rect (at -2.95 -2.275) (size 1.45 0.45) (layers F.Cu F.Paste F.Mask)
      (net 10 "Net-(U1-Pad2)"))
    (pad 3 smd rect (at -2.95 -1.625) (size 1.45 0.45) (layers F.Cu F.Paste F.Mask)
      (net 3 "Net-(U1-Pad3)"))
    (pad 4 smd rect (at -2.95 -0.975) (size 1.45 0.45) (layers F.Cu F.Paste F.Mask)
      (net 13 "Net-(J1-Pad5)"))
    (pad 5 smd rect (at -2.95 -0.325) (size 1.45 0.45) (layers F.Cu F.Paste F.Mask)
      (net 2 VDD))
    (pad 6 smd rect (at -2.95 0.325) (size 1.45 0.45) (layers F.Cu F.Paste F.Mask)
      (net 5 "Net-(U1-Pad6)"))
    (pad 7 smd rect (at -2.95 0.975) (size 1.45 0.45) (layers F.Cu F.Paste F.Mask)
      (net 15 "Net-(J2-Pad2)"))
    (pad 8 smd rect (at -2.95 1.625) (size 1.45 0.45) (layers F.Cu F.Paste F.Mask)
      (net 17 "Net-(U1-Pad8)"))
    (pad 9 smd rect (at -2.95 2.275) (size 1.45 0.45) (layers F.Cu F.Paste F.Mask)
      (net 18 "Net-(U1-Pad9)"))
    (pad 10 smd rect (at -2.95 2.925) (size 1.45 0.45) (layers F.Cu F.Paste F.Mask)
      (net 14 "Net-(J2-Pad1)"))
    (pad 11 smd rect (at 2.95 2.925) (size 1.45 0.45) (layers F.Cu F.Paste F.Mask)
      (net 11 "Net-(J2-Pad4)"))
    (pad 12 smd rect (at 2.95 2.275) (size 1.45 0.45) (layers F.Cu F.Paste F.Mask)
      (net 6 "Net-(U1-Pad12)"))
    (pad 13 smd rect (at 2.95 1.625) (size 1.45 0.45) (layers F.Cu F.Paste F.Mask)
      (net 7 "Net-(U1-Pad13)"))
    (pad 14 smd rect (at 2.95 0.975) (size 1.45 0.45) (layers F.Cu F.Paste F.Mask)
      (net 12 "Net-(J2-Pad3)"))
    (pad 15 smd rect (at 2.95 0.325) (size 1.45 0.45) (layers F.Cu F.Paste F.Mask)
      (net 4 GND))
    (pad 16 smd rect (at 2.95 -0.325) (size 1.45 0.45) (layers F.Cu F.Paste F.Mask)
      (net 2 VDD))
    (pad 17 smd rect (at 2.95 -0.975) (size 1.45 0.45) (layers F.Cu F.Paste F.Mask)
      (net 19 /TX))
    (pad 18 smd rect (at 2.95 -1.625) (size 1.45 0.45) (layers F.Cu F.Paste F.Mask)
      (net 20 /RX))
    (pad 19 smd rect (at 2.95 -2.275) (size 1.45 0.45) (layers F.Cu F.Paste F.Mask)
      (net 16 "Net-(J1-Pad4)"))
    (pad 20 smd rect (at 2.95 -2.925) (size 1.45 0.45) (layers F.Cu F.Paste F.Mask)
      (net 8 "Net-(J1-Pad2)"))
    (model ${KISYS3DMOD}/Package_SO.3dshapes/TSSOP-20_4.4x6.5mm_P0.65mm.wrl
      (at (xyz 0 0 0))
      (scale (xyz 1 1 1))
      (rotate (xyz 0 0 0))
    )
  )

  (gr_arc (start 147.32 128.27) (end 147.32 127) (angle -90) (layer Edge.Cuts) (width 0.2))
  (gr_arc (start 143.51 128.27) (end 143.51 130.81) (angle -90) (layer Edge.Cuts) (width 0.2))
  (gr_arc (start 137.16 128.27) (end 134.62 128.27) (angle -90) (layer Edge.Cuts) (width 0.2))
  (gr_arc (start 133.35 128.27) (end 134.62 128.27) (angle -90) (layer Edge.Cuts) (width 0.2))
  (gr_arc (start 135.89 153.67) (end 135.89 152.4) (angle -90) (layer Edge.Cuts) (width 0.2))
  (gr_arc (start 133.35 153.67) (end 133.35 154.94) (angle -90) (layer Edge.Cuts) (width 0.2))
  (gr_arc (start 144.78 153.67) (end 146.05 153.67) (angle -90) (layer Edge.Cuts) (width 0.2))
  (gr_arc (start 147.32 153.67) (end 146.05 153.67) (angle -90) (layer Edge.Cuts) (width 0.2))
  (gr_text "PicoNode\nCompute\nRevB" (at 153.67 149.86) (layer F.SilkS)
    (effects (font (size 1.5 1.5) (thickness 0.3)) (justify right))
  )
  (gr_text RX (at 129.54 147.32) (layer F.SilkS)
    (effects (font (size 1.5 1.5) (thickness 0.3)))
  )
  (gr_text TX (at 129.54 139.7) (layer F.SilkS)
    (effects (font (size 1.5 1.5) (thickness 0.3)))
  )
  (gr_line (start 135.89 152.4) (end 144.78 152.4) (layer Edge.Cuts) (width 0.15))
  (gr_line (start 133.35 154.94) (end 124.46 154.94) (layer Edge.Cuts) (width 0.15) (tstamp 5AF8CD32))
  (gr_line (start 137.16 130.81) (end 143.51 130.81) (layer Edge.Cuts) (width 0.15))
  (gr_line (start 147.32 127) (end 154.94 127) (layer Edge.Cuts) (width 0.15) (tstamp 5AF8CCEA))
  (gr_line (start 124.46 129.54) (end 127 127) (layer Edge.Cuts) (width 0.2))
  (gr_line (start 124.46 154.94) (end 124.46 129.54) (layer Edge.Cuts) (width 0.15))
  (gr_line (start 154.94 154.94) (end 147.32 154.94) (layer Edge.Cuts) (width 0.15))
  (gr_line (start 154.94 127) (end 154.94 154.94) (layer Edge.Cuts) (width 0.15))
  (gr_line (start 127 127) (end 133.35 127) (layer Edge.Cuts) (width 0.15))

  (segment (start 134.62 137.545) (end 134.62 133.33) (width 0.4) (layer F.Cu) (net 2))
  (segment (start 133.3525 138.8125) (end 134.62 137.545) (width 0.4) (layer F.Cu) (net 2))
  (segment (start 133.35 138.8125) (end 133.3525 138.8125) (width 0.4) (layer F.Cu) (net 2))
  (segment (start 136.75 141.915) (end 142.65 141.915) (width 0.4) (layer F.Cu) (net 2))
  (segment (start 134.62 139.7) (end 134.62 141.915) (width 0.4) (layer F.Cu) (net 2))
  (segment (start 133.35 138.8125) (end 133.7325 138.8125) (width 0.4) (layer F.Cu) (net 2))
  (segment (start 134.62 141.915) (end 136.75 141.915) (width 0.4) (layer F.Cu) (net 2))
  (segment (start 133.7325 138.8125) (end 134.62 139.7) (width 0.4) (layer F.Cu) (net 2))
  (segment (start 148.9725 137.0375) (end 149.86 137.925) (width 0.4) (layer F.Cu) (net 2))
  (segment (start 148.9725 134.62) (end 148.9725 137.0375) (width 0.4) (layer F.Cu) (net 2))
  (segment (start 143.775 141.915) (end 142.65 141.915) (width 0.4) (layer F.Cu) (net 2))
  (segment (start 149.362502 141.915) (end 143.775 141.915) (width 0.4) (layer F.Cu) (net 2))
  (segment (start 150.76 140.517502) (end 149.362502 141.915) (width 0.4) (layer F.Cu) (net 2))
  (segment (start 150.76 138.8225) (end 150.76 140.517502) (width 0.4) (layer F.Cu) (net 2))
  (segment (start 149.8625 137.925) (end 150.76 138.8225) (width 0.4) (layer F.Cu) (net 2))
  (segment (start 149.86 137.925) (end 149.8625 137.925) (width 0.4) (layer F.Cu) (net 2))
  (segment (start 132.45 139.69) (end 132.45 131.829998) (width 0.4) (layer F.Cu) (net 4))
  (segment (start 133.3475 140.5875) (end 132.45 139.69) (width 0.4) (layer F.Cu) (net 4))
  (segment (start 133.35 140.5875) (end 133.3475 140.5875) (width 0.4) (layer F.Cu) (net 4))
  (segment (start 148.075 132.08) (end 148.9725 132.08) (width 0.4) (layer F.Cu) (net 4))
  (segment (start 139.7 132.08) (end 139.7 133.33) (width 0.4) (layer F.Cu) (net 4))
  (segment (start 143.775 142.565) (end 142.65 142.565) (width 0.4) (layer F.Cu) (net 4))
  (segment (start 150.805 142.565) (end 143.775 142.565) (width 0.4) (layer F.Cu) (net 4))
  (segment (start 148.9725 132.08) (end 148.9725 132.0775) (width 0.4) (layer F.Cu) (net 4))
  (segment (start 149.87 131.18) (end 151.565001 131.179999) (width 0.4) (layer F.Cu) (net 4))
  (segment (start 151.645001 141.724999) (end 150.805 142.565) (width 0.4) (layer F.Cu) (net 4))
  (segment (start 148.9725 132.0775) (end 149.87 131.18) (width 0.4) (layer F.Cu) (net 4))
  (segment (start 151.565001 131.179999) (end 151.645001 131.259999) (width 0.4) (layer F.Cu) (net 4))
  (segment (start 151.645001 131.259999) (end 151.645001 141.724999) (width 0.4) (layer F.Cu) (net 4))
  (segment (start 142.65 138.69) (end 142.65 139.315) (width 0.4) (layer F.Cu) (net 8))
  (segment (start 139.044003 134.580001) (end 142.65 138.185998) (width 0.4) (layer F.Cu) (net 8))
  (segment (start 142.65 138.185998) (end 142.65 138.69) (width 0.4) (layer F.Cu) (net 8))
  (segment (start 138.410001 134.580001) (end 139.044003 134.580001) (width 0.4) (layer F.Cu) (net 8))
  (segment (start 137.16 133.33) (end 138.410001 134.580001) (width 0.4) (layer F.Cu) (net 8))
  (segment (start 150.7475 132.08) (end 150.7475 134.62) (width 0.4) (layer F.Cu) (net 9))
  (segment (start 142.24 148.657919) (end 142.24 149.86) (width 0.4) (layer F.Cu) (net 11))
  (segment (start 142.24 145.55) (end 142.24 148.657919) (width 0.4) (layer F.Cu) (net 11))
  (segment (start 142.625 145.165) (end 142.24 145.55) (width 0.4) (layer F.Cu) (net 11))
  (segment (start 142.65 145.165) (end 142.625 145.165) (width 0.4) (layer F.Cu) (net 11))
  (segment (start 139.7 148.657919) (end 139.7 149.86) (width 0.4) (layer F.Cu) (net 12))
  (segment (start 139.7 145.04) (end 139.7 148.657919) (width 0.4) (layer F.Cu) (net 12))
  (segment (start 141.525 143.215) (end 139.7 145.04) (width 0.4) (layer F.Cu) (net 12))
  (segment (start 142.65 143.215) (end 141.525 143.215) (width 0.4) (layer F.Cu) (net 12))
  (segment (start 136.75 141.265) (end 137.875 141.265) (width 0.4) (layer F.Cu) (net 13))
  (segment (start 140.972792 137.16) (end 139.7 137.16) (width 0.4) (layer B.Cu) (net 13))
  (segment (start 137.875 141.265) (end 139.7 139.44) (width 0.4) (layer F.Cu) (net 13))
  (segment (start 139.7 138.432792) (end 139.7 137.16) (width 0.4) (layer F.Cu) (net 13))
  (via (at 139.7 137.16) (size 1.8) (drill 0.55) (layers F.Cu B.Cu) (net 13))
  (via (at 146.05 135.89) (size 1.8) (drill 0.55) (layers F.Cu B.Cu) (net 13))
  (segment (start 144.78 137.16) (end 140.972792 137.16) (width 0.4) (layer B.Cu) (net 13))
  (segment (start 139.7 139.44) (end 139.7 138.432792) (width 0.4) (layer F.Cu) (net 13))
  (segment (start 146.05 135.89) (end 144.78 137.16) (width 0.4) (layer B.Cu) (net 13))
  (segment (start 144.78 134.62) (end 146.05 135.89) (width 0.4) (layer F.Cu) (net 13))
  (segment (start 144.78 133.33) (end 144.78 134.62) (width 0.4) (layer F.Cu) (net 13))
  (segment (start 134.62 148.61) (end 134.62 149.86) (width 0.4) (layer F.Cu) (net 14))
  (segment (start 134.62 146.795) (end 134.62 148.61) (width 0.4) (layer F.Cu) (net 14))
  (segment (start 136.25 145.165) (end 134.62 146.795) (width 0.4) (layer F.Cu) (net 14))
  (segment (start 136.75 145.165) (end 136.25 145.165) (width 0.4) (layer F.Cu) (net 14))
  (segment (start 138.009999 149.010001) (end 137.16 149.86) (width 0.4) (layer F.Cu) (net 15))
  (segment (start 138.009999 143.349999) (end 138.009999 149.010001) (width 0.4) (layer F.Cu) (net 15))
  (segment (start 137.875001 143.215001) (end 138.009999 143.349999) (width 0.4) (layer F.Cu) (net 15))
  (segment (start 136.75 143.215) (end 137.875001 143.215001) (width 0.4) (layer F.Cu) (net 15))
  (segment (start 143.775 139.965) (end 142.65 139.965) (width 0.4) (layer F.Cu) (net 16))
  (segment (start 143.775001 134.865001) (end 143.775 139.965) (width 0.4) (layer F.Cu) (net 16))
  (segment (start 142.24 133.33) (end 143.775001 134.865001) (width 0.4) (layer F.Cu) (net 16))
  (segment (start 142.65 141.265) (end 146.456522 141.265) (width 0.4) (layer F.Cu) (net 19))
  (segment (start 145.481522 142.24) (end 129.54 142.24) (width 0.4) (layer B.Cu) (net 19))
  (segment (start 146.456522 141.265) (end 147.213261 140.508261) (width 0.4) (layer F.Cu) (net 19))
  (segment (start 147.213261 140.508261) (end 145.481522 142.24) (width 0.4) (layer B.Cu) (net 19))
  (via (at 147.213261 140.508261) (size 1.8) (drill 0.55) (layers F.Cu B.Cu) (net 19))
  (segment (start 147.32 138.43) (end 148.59 139.7) (width 0.4) (layer B.Cu) (net 20))
  (segment (start 148.59 139.7) (end 148.59 141.055524) (width 0.4) (layer B.Cu) (net 20))
  (segment (start 144.865524 144.78) (end 130.742081 144.78) (width 0.4) (layer B.Cu) (net 20))
  (segment (start 142.65 140.615) (end 143.973542 140.615) (width 0.4) (layer F.Cu) (net 20))
  (segment (start 148.59 141.055524) (end 144.865524 144.78) (width 0.4) (layer B.Cu) (net 20))
  (segment (start 143.973542 140.615) (end 146.158542 138.43) (width 0.4) (layer F.Cu) (net 20))
  (segment (start 146.158542 138.43) (end 147.32 138.43) (width 0.4) (layer F.Cu) (net 20))
  (via (at 147.32 138.43) (size 1.8) (drill 0.55) (layers F.Cu B.Cu) (net 20))
  (segment (start 130.742081 144.78) (end 129.54 144.78) (width 0.4) (layer B.Cu) (net 20))
  (segment (start 148.59 139.7) (end 147.32 138.43) (width 0.4) (layer F.Cu) (net 20))
  (segment (start 149.86 139.7) (end 148.59 139.7) (width 0.4) (layer F.Cu) (net 20))

  (zone (net 4) (net_name GND) (layer F.Cu) (tstamp 5B1E77E1) (hatch edge 0.508)
    (connect_pads (clearance 0.508))
    (min_thickness 0.254)
    (fill yes (arc_segments 16) (thermal_gap 0.508) (thermal_bridge_width 0.508))
    (polygon
      (pts
        (xy 124.46 129.54) (xy 127 127) (xy 133.35 127) (xy 147.32 127) (xy 154.94 127)
        (xy 154.94 154.94) (xy 124.46 154.94)
      )
    )
    (filled_polygon
      (pts
        (xy 133.222369 127.723834) (xy 133.529102 127.777919) (xy 133.686604 127.868854) (xy 133.803503 128.008168) (xy 133.876937 128.209924)
        (xy 133.886008 128.31361) (xy 133.890375 128.452575) (xy 133.892192 128.464048) (xy 133.891463 128.475639) (xy 133.903031 128.567213)
        (xy 134.022335 129.192628) (xy 134.036625 129.236608) (xy 134.04529 129.282031) (xy 134.079268 129.367851) (xy 134.350359 129.943948)
        (xy 134.375138 129.982994) (xy 134.394826 130.024832) (xy 134.44908 130.099507) (xy 134.854922 130.590086) (xy 134.888632 130.621742)
        (xy 134.918108 130.657372) (xy 134.989228 130.716208) (xy 135.504324 131.090447) (xy 135.54485 131.112726) (xy 135.582257 131.139904)
        (xy 135.665775 131.179205) (xy 136.257757 131.413587) (xy 136.302551 131.425088) (xy 136.345541 131.442109) (xy 136.436193 131.459402)
        (xy 136.436208 131.459406) (xy 136.436216 131.459406) (xy 137.06788 131.539204) (xy 137.25212 131.539205) (xy 137.326916 131.52)
        (xy 143.34358 131.52) (xy 143.44083 131.541738) (xy 143.533086 131.544637) (xy 143.692575 131.539625) (xy 143.704048 131.537808)
        (xy 143.715639 131.538537) (xy 143.807213 131.526969) (xy 144.191355 131.45369) (xy 147.84 131.45369) (xy 147.84 131.79425)
        (xy 147.99875 131.953) (xy 148.8455 131.953) (xy 148.8455 131.10375) (xy 148.68675 130.945) (xy 148.348691 130.945)
        (xy 148.115302 131.041673) (xy 147.936673 131.220301) (xy 147.84 131.45369) (xy 144.191355 131.45369) (xy 144.432628 131.407665)
        (xy 144.476608 131.393375) (xy 144.522031 131.38471) (xy 144.607851 131.350732) (xy 145.183948 131.079641) (xy 145.222994 131.054862)
        (xy 145.264832 131.035174) (xy 145.339507 130.98092) (xy 145.830086 130.575078) (xy 145.861742 130.541368) (xy 145.897372 130.511892)
        (xy 145.956208 130.440772) (xy 146.330447 129.925676) (xy 146.352726 129.88515) (xy 146.379904 129.847743) (xy 146.419205 129.764225)
        (xy 146.653587 129.172243) (xy 146.665088 129.127449) (xy 146.682109 129.084459) (xy 146.699402 128.993807) (xy 146.699406 128.993792)
        (xy 146.699406 128.993784) (xy 146.776951 128.379951) (xy 146.827919 128.090898) (xy 146.918854 127.933396) (xy 147.058168 127.816497)
        (xy 147.259924 127.743063) (xy 147.384059 127.732203) (xy 147.466922 127.71) (xy 154.23 127.71) (xy 154.230001 154.23)
        (xy 147.48564 154.23) (xy 147.447631 154.216166) (xy 147.140897 154.162081) (xy 146.983396 154.071147) (xy 146.866496 153.931831)
        (xy 146.793063 153.730077) (xy 146.782203 153.605941) (xy 146.762909 153.385408) (xy 146.738056 153.292654) (xy 146.72138 153.198082)
        (xy 146.570526 152.783615) (xy 146.442894 152.562551) (xy 146.159382 152.224675) (xy 146.085863 152.162985) (xy 145.963841 152.060596)
        (xy 145.581868 151.840062) (xy 145.581867 151.840061) (xy 145.581866 151.840061) (xy 145.341997 151.752756) (xy 144.907631 151.676166)
        (xy 144.652368 151.676166) (xy 144.614359 151.69) (xy 136.079718 151.69) (xy 135.825941 151.667797) (xy 135.605408 151.687091)
        (xy 135.512654 151.711944) (xy 135.418082 151.72862) (xy 135.003615 151.879474) (xy 134.782551 152.007106) (xy 134.444678 152.290615)
        (xy 134.444677 152.290616) (xy 134.280596 152.486159) (xy 134.060062 152.868132) (xy 134.060061 152.868133) (xy 134.060061 152.868134)
        (xy 133.972756 153.108003) (xy 133.896166 153.542369) (xy 133.842081 153.849103) (xy 133.751147 154.006604) (xy 133.611831 154.123504)
        (xy 133.410077 154.196937) (xy 133.285941 154.207797) (xy 133.203078 154.23) (xy 125.17 154.23) (xy 125.17 144.78)
        (xy 128.025908 144.78) (xy 128.141161 145.359418) (xy 128.469375 145.850625) (xy 128.960582 146.178839) (xy 129.393744 146.265)
        (xy 129.686256 146.265) (xy 130.119418 146.178839) (xy 130.610625 145.850625) (xy 130.938839 145.359418) (xy 131.054092 144.78)
        (xy 130.938839 144.200582) (xy 130.610625 143.709375) (xy 130.592381 143.697184) (xy 130.637765 143.688157) (xy 130.847809 143.547809)
        (xy 130.988157 143.337765) (xy 131.03744 143.09) (xy 131.03744 141.39) (xy 130.988157 141.142235) (xy 130.847809 140.932191)
        (xy 130.759599 140.87325) (xy 132.215 140.87325) (xy 132.215 141.211309) (xy 132.311673 141.444698) (xy 132.490301 141.623327)
        (xy 132.72369 141.72) (xy 133.06425 141.72) (xy 133.223 141.56125) (xy 133.223 140.7145) (xy 132.37375 140.7145)
        (xy 132.215 140.87325) (xy 130.759599 140.87325) (xy 130.637765 140.791843) (xy 130.39 140.74256) (xy 128.69 140.74256)
        (xy 128.442235 140.791843) (xy 128.232191 140.932191) (xy 128.091843 141.142235) (xy 128.04256 141.39) (xy 128.04256 143.09)
        (xy 128.091843 143.337765) (xy 128.232191 143.547809) (xy 128.442235 143.688157) (xy 128.487619 143.697184) (xy 128.469375 143.709375)
        (xy 128.141161 144.200582) (xy 128.025908 144.78) (xy 125.17 144.78) (xy 125.17 138.315) (xy 132.20256 138.315)
        (xy 132.20256 139.31) (xy 132.251843 139.557765) (xy 132.344917 139.697058) (xy 132.311673 139.730302) (xy 132.215 139.963691)
        (xy 132.215 140.30175) (xy 132.37375 140.4605) (xy 133.223 140.4605) (xy 133.223 140.4405) (xy 133.477 140.4405)
        (xy 133.477 140.4605) (xy 133.497 140.4605) (xy 133.497 140.7145) (xy 133.477 140.7145) (xy 133.477 141.56125)
        (xy 133.63575 141.72) (xy 133.785001 141.72) (xy 133.785001 141.832758) (xy 133.768642 141.915) (xy 133.833448 142.240801)
        (xy 134.017999 142.517001) (xy 134.294199 142.701552) (xy 134.537763 142.75) (xy 134.62 142.766358) (xy 134.702237 142.75)
        (xy 135.37756 142.75) (xy 135.37756 142.79) (xy 135.397451 142.89) (xy 135.37756 142.99) (xy 135.37756 143.44)
        (xy 135.397451 143.54) (xy 135.37756 143.64) (xy 135.37756 144.09) (xy 135.397451 144.19) (xy 135.37756 144.29)
        (xy 135.37756 144.74) (xy 135.3969 144.837232) (xy 134.08772 146.146413) (xy 134.017999 146.192999) (xy 133.833448 146.4692)
        (xy 133.785 146.712764) (xy 133.785 146.712767) (xy 133.768643 146.795) (xy 133.785 146.877233) (xy 133.785001 148.36256)
        (xy 133.77 148.36256) (xy 133.522235 148.411843) (xy 133.312191 148.552191) (xy 133.171843 148.762235) (xy 133.12256 149.01)
        (xy 133.12256 150.71) (xy 133.171843 150.957765) (xy 133.312191 151.167809) (xy 133.522235 151.308157) (xy 133.77 151.35744)
        (xy 135.47 151.35744) (xy 135.717765 151.308157) (xy 135.927809 151.167809) (xy 136.068157 150.957765) (xy 136.077184 150.912381)
        (xy 136.089375 150.930625) (xy 136.580582 151.258839) (xy 137.013744 151.345) (xy 137.306256 151.345) (xy 137.739418 151.258839)
        (xy 138.230625 150.930625) (xy 138.43 150.632239) (xy 138.629375 150.930625) (xy 139.120582 151.258839) (xy 139.553744 151.345)
        (xy 139.846256 151.345) (xy 140.279418 151.258839) (xy 140.770625 150.930625) (xy 140.97 150.632239) (xy 141.169375 150.930625)
        (xy 141.660582 151.258839) (xy 142.093744 151.345) (xy 142.386256 151.345) (xy 142.819418 151.258839) (xy 143.310625 150.930625)
        (xy 143.638839 150.439418) (xy 143.754092 149.86) (xy 143.638839 149.280582) (xy 143.310625 148.789375) (xy 143.075 148.631935)
        (xy 143.075 146.03744) (xy 143.375 146.03744) (xy 143.622765 145.988157) (xy 143.832809 145.847809) (xy 143.973157 145.637765)
        (xy 144.02244 145.39) (xy 144.02244 144.94) (xy 144.002549 144.84) (xy 144.02244 144.74) (xy 144.02244 144.29)
        (xy 144.002549 144.19) (xy 144.02244 144.09) (xy 144.02244 143.64) (xy 144.002549 143.54) (xy 144.02244 143.44)
        (xy 144.02244 142.99) (xy 144.008502 142.919927) (xy 144.01 142.91631) (xy 144.01 142.83625) (xy 143.987353 142.813603)
        (xy 143.974702 142.75) (xy 149.280269 142.75) (xy 149.362502 142.766357) (xy 149.444735 142.75) (xy 149.444739 142.75)
        (xy 149.688303 142.701552) (xy 149.964503 142.517001) (xy 150.011089 142.44728) (xy 151.292282 141.166087) (xy 151.362001 141.119503)
        (xy 151.546552 140.843303) (xy 151.595 140.599739) (xy 151.611358 140.517502) (xy 151.595 140.435265) (xy 151.595 138.904737)
        (xy 151.611358 138.8225) (xy 151.585997 138.695) (xy 151.546552 138.496699) (xy 151.362001 138.220499) (xy 151.292283 138.173915)
        (xy 151.00744 137.889072) (xy 151.00744 137.4275) (xy 150.958157 137.179735) (xy 150.817809 136.969691) (xy 150.607765 136.829343)
        (xy 150.36 136.78006) (xy 149.895927 136.78006) (xy 149.8075 136.691633) (xy 149.8075 135.658198) (xy 149.86 135.623118)
        (xy 150.002235 135.718157) (xy 150.25 135.76744) (xy 151.245 135.76744) (xy 151.492765 135.718157) (xy 151.702809 135.577809)
        (xy 151.843157 135.367765) (xy 151.89244 135.12) (xy 151.89244 134.12) (xy 151.843157 133.872235) (xy 151.702809 133.662191)
        (xy 151.5825 133.581802) (xy 151.5825 133.118198) (xy 151.702809 133.037809) (xy 151.843157 132.827765) (xy 151.89244 132.58)
        (xy 151.89244 131.58) (xy 151.843157 131.332235) (xy 151.702809 131.122191) (xy 151.492765 130.981843) (xy 151.245 130.93256)
        (xy 150.25 130.93256) (xy 150.002235 130.981843) (xy 149.862942 131.074917) (xy 149.829698 131.041673) (xy 149.596309 130.945)
        (xy 149.25825 130.945) (xy 149.0995 131.10375) (xy 149.0995 131.953) (xy 149.1195 131.953) (xy 149.1195 132.207)
        (xy 149.0995 132.207) (xy 149.0995 133.05625) (xy 149.25825 133.215) (xy 149.596309 133.215) (xy 149.829698 133.118327)
        (xy 149.862942 133.085083) (xy 149.9125 133.118198) (xy 149.912501 133.581802) (xy 149.86 133.616882) (xy 149.717765 133.521843)
        (xy 149.47 133.47256) (xy 148.475 133.47256) (xy 148.227235 133.521843) (xy 148.017191 133.662191) (xy 147.876843 133.872235)
        (xy 147.82756 134.12) (xy 147.82756 135.12) (xy 147.876843 135.367765) (xy 148.017191 135.577809) (xy 148.1375 135.658198)
        (xy 148.137501 136.955262) (xy 148.121143 137.0375) (xy 148.134772 137.106018) (xy 147.62533 136.895) (xy 147.215817 136.895)
        (xy 147.35131 136.759507) (xy 147.585 136.19533) (xy 147.585 135.58467) (xy 147.35131 135.020493) (xy 146.919507 134.58869)
        (xy 146.35533 134.355) (xy 145.881111 134.355) (xy 146.178839 133.909418) (xy 146.294092 133.33) (xy 146.178839 132.750582)
        (xy 145.921703 132.36575) (xy 147.84 132.36575) (xy 147.84 132.70631) (xy 147.936673 132.939699) (xy 148.115302 133.118327)
        (xy 148.348691 133.215) (xy 148.68675 133.215) (xy 148.8455 133.05625) (xy 148.8455 132.207) (xy 147.99875 132.207)
        (xy 147.84 132.36575) (xy 145.921703 132.36575) (xy 145.850625 132.259375) (xy 145.359418 131.931161) (xy 144.926256 131.845)
        (xy 144.633744 131.845) (xy 144.200582 131.931161) (xy 143.709375 132.259375) (xy 143.51 132.557761) (xy 143.310625 132.259375)
        (xy 142.819418 131.931161) (xy 142.386256 131.845) (xy 142.093744 131.845) (xy 141.660582 131.931161) (xy 141.169375 132.259375)
        (xy 140.956157 132.578478) (xy 140.895183 132.448642) (xy 140.466924 132.058355) (xy 140.05689 131.888524) (xy 139.827 132.009845)
        (xy 139.827 133.203) (xy 139.847 133.203) (xy 139.847 133.457) (xy 139.827 133.457) (xy 139.827 133.477)
        (xy 139.573 133.477) (xy 139.573 133.457) (xy 139.553 133.457) (xy 139.553 133.203) (xy 139.573 133.203)
        (xy 139.573 132.009845) (xy 139.34311 131.888524) (xy 138.933076 132.058355) (xy 138.504817 132.448642) (xy 138.443843 132.578478)
        (xy 138.230625 132.259375) (xy 137.739418 131.931161) (xy 137.306256 131.845) (xy 137.013744 131.845) (xy 136.580582 131.931161)
        (xy 136.089375 132.259375) (xy 136.077184 132.277619) (xy 136.068157 132.232235) (xy 135.927809 132.022191) (xy 135.717765 131.881843)
        (xy 135.47 131.83256) (xy 133.77 131.83256) (xy 133.522235 131.881843) (xy 133.312191 132.022191) (xy 133.171843 132.232235)
        (xy 133.12256 132.48) (xy 133.12256 134.18) (xy 133.171843 134.427765) (xy 133.312191 134.637809) (xy 133.522235 134.778157)
        (xy 133.77 134.82744) (xy 133.785001 134.82744) (xy 133.785 137.199132) (xy 133.316573 137.66756) (xy 132.85 137.66756)
        (xy 132.602235 137.716843) (xy 132.392191 137.857191) (xy 132.251843 138.067235) (xy 132.20256 138.315) (xy 125.17 138.315)
        (xy 125.17 129.869446) (xy 127.329447 127.71) (xy 133.18436 127.71)
      )
    )
  )
  (zone (net 4) (net_name GND) (layer B.Cu) (tstamp 5B1E77DE) (hatch edge 0.508)
    (connect_pads (clearance 0.508))
    (min_thickness 0.254)
    (fill yes (arc_segments 16) (thermal_gap 0.508) (thermal_bridge_width 0.508))
    (polygon
      (pts
        (xy 124.46 129.54) (xy 127 127) (xy 133.35 127) (xy 147.32 127) (xy 154.94 127)
        (xy 154.94 154.94) (xy 124.46 154.94)
      )
    )
    (filled_polygon
      (pts
        (xy 133.222369 127.723834) (xy 133.529102 127.777919) (xy 133.686604 127.868854) (xy 133.803503 128.008168) (xy 133.876937 128.209924)
        (xy 133.886008 128.31361) (xy 133.890375 128.452575) (xy 133.892192 128.464048) (xy 133.891463 128.475639) (xy 133.903031 128.567213)
        (xy 134.022335 129.192628) (xy 134.036625 129.236608) (xy 134.04529 129.282031) (xy 134.079268 129.367851) (xy 134.350359 129.943948)
        (xy 134.375138 129.982994) (xy 134.394826 130.024832) (xy 134.44908 130.099507) (xy 134.854922 130.590086) (xy 134.888632 130.621742)
        (xy 134.918108 130.657372) (xy 134.989228 130.716208) (xy 135.504324 131.090447) (xy 135.54485 131.112726) (xy 135.582257 131.139904)
        (xy 135.665775 131.179205) (xy 136.257757 131.413587) (xy 136.302551 131.425088) (xy 136.345541 131.442109) (xy 136.436193 131.459402)
        (xy 136.436208 131.459406) (xy 136.436216 131.459406) (xy 137.06788 131.539204) (xy 137.25212 131.539205) (xy 137.326916 131.52)
        (xy 143.34358 131.52) (xy 143.44083 131.541738) (xy 143.533086 131.544637) (xy 143.692575 131.539625) (xy 143.704048 131.537808)
        (xy 143.715639 131.538537) (xy 143.807213 131.526969) (xy 144.432628 131.407665) (xy 144.476608 131.393375) (xy 144.522031 131.38471)
        (xy 144.607851 131.350732) (xy 145.183948 131.079641) (xy 145.222994 131.054862) (xy 145.264832 131.035174) (xy 145.339507 130.98092)
        (xy 145.830086 130.575078) (xy 145.861742 130.541368) (xy 145.897372 130.511892) (xy 145.956208 130.440772) (xy 146.330447 129.925676)
        (xy 146.352726 129.88515) (xy 146.379904 129.847743) (xy 146.419205 129.764225) (xy 146.653587 129.172243) (xy 146.665088 129.127449)
        (xy 146.682109 129.084459) (xy 146.699402 128.993807) (xy 146.699406 128.993792) (xy 146.699406 128.993784) (xy 146.776951 128.379951)
        (xy 146.827919 128.090898) (xy 146.918854 127.933396) (xy 147.058168 127.816497) (xy 147.259924 127.743063) (xy 147.384059 127.732203)
        (xy 147.466922 127.71) (xy 154.23 127.71) (xy 154.230001 154.23) (xy 147.48564 154.23) (xy 147.447631 154.216166)
        (xy 147.140897 154.162081) (xy 146.983396 154.071147) (xy 146.866496 153.931831) (xy 146.793063 153.730077) (xy 146.782203 153.605941)
        (xy 146.762909 153.385408) (xy 146.738056 153.292654) (xy 146.72138 153.198082) (xy 146.570526 152.783615) (xy 146.442894 152.562551)
        (xy 146.159382 152.224675) (xy 146.085863 152.162985) (xy 145.963841 152.060596) (xy 145.581868 151.840062) (xy 145.581867 151.840061)
        (xy 145.581866 151.840061) (xy 145.341997 151.752756) (xy 144.907631 151.676166) (xy 144.652368 151.676166) (xy 144.614359 151.69)
        (xy 136.079718 151.69) (xy 135.825941 151.667797) (xy 135.605408 151.687091) (xy 135.512654 151.711944) (xy 135.418082 151.72862)
        (xy 135.003615 151.879474) (xy 134.782551 152.007106) (xy 134.444678 152.290615) (xy 134.444677 152.290616) (xy 134.280596 152.486159)
        (xy 134.060062 152.868132) (xy 134.060061 152.868133) (xy 134.060061 152.868134) (xy 133.972756 153.108003) (xy 133.896166 153.542369)
        (xy 133.842081 153.849103) (xy 133.751147 154.006604) (xy 133.611831 154.123504) (xy 133.410077 154.196937) (xy 133.285941 154.207797)
        (xy 133.203078 154.23) (xy 125.17 154.23) (xy 125.17 149.01) (xy 133.12256 149.01) (xy 133.12256 150.71)
        (xy 133.171843 150.957765) (xy 133.312191 151.167809) (xy 133.522235 151.308157) (xy 133.77 151.35744) (xy 135.47 151.35744)
        (xy 135.717765 151.308157) (xy 135.927809 151.167809) (xy 136.068157 150.957765) (xy 136.077184 150.912381) (xy 136.089375 150.930625)
        (xy 136.580582 151.258839) (xy 137.013744 151.345) (xy 137.306256 151.345) (xy 137.739418 151.258839) (xy 138.230625 150.930625)
        (xy 138.43 150.632239) (xy 138.629375 150.930625) (xy 139.120582 151.258839) (xy 139.553744 151.345) (xy 139.846256 151.345)
        (xy 140.279418 151.258839) (xy 140.770625 150.930625) (xy 140.97 150.632239) (xy 141.169375 150.930625) (xy 141.660582 151.258839)
        (xy 142.093744 151.345) (xy 142.386256 151.345) (xy 142.819418 151.258839) (xy 143.310625 150.930625) (xy 143.638839 150.439418)
        (xy 143.754092 149.86) (xy 143.638839 149.280582) (xy 143.310625 148.789375) (xy 142.819418 148.461161) (xy 142.386256 148.375)
        (xy 142.093744 148.375) (xy 141.660582 148.461161) (xy 141.169375 148.789375) (xy 140.97 149.087761) (xy 140.770625 148.789375)
        (xy 140.279418 148.461161) (xy 139.846256 148.375) (xy 139.553744 148.375) (xy 139.120582 148.461161) (xy 138.629375 148.789375)
        (xy 138.43 149.087761) (xy 138.230625 148.789375) (xy 137.739418 148.461161) (xy 137.306256 148.375) (xy 137.013744 148.375)
        (xy 136.580582 148.461161) (xy 136.089375 148.789375) (xy 136.077184 148.807619) (xy 136.068157 148.762235) (xy 135.927809 148.552191)
        (xy 135.717765 148.411843) (xy 135.47 148.36256) (xy 133.77 148.36256) (xy 133.522235 148.411843) (xy 133.312191 148.552191)
        (xy 133.171843 148.762235) (xy 133.12256 149.01) (xy 125.17 149.01) (xy 125.17 144.78) (xy 128.025908 144.78)
        (xy 128.141161 145.359418) (xy 128.469375 145.850625) (xy 128.960582 146.178839) (xy 129.393744 146.265) (xy 129.686256 146.265)
        (xy 130.119418 146.178839) (xy 130.610625 145.850625) (xy 130.768065 145.615) (xy 144.783291 145.615) (xy 144.865524 145.631357)
        (xy 144.947757 145.615) (xy 144.947761 145.615) (xy 145.191325 145.566552) (xy 145.467525 145.382001) (xy 145.514111 145.31228)
        (xy 149.122286 141.704107) (xy 149.192001 141.657525) (xy 149.376552 141.381325) (xy 149.425 141.137761) (xy 149.425 141.137758)
        (xy 149.441357 141.055525) (xy 149.425 140.973292) (xy 149.425 139.782232) (xy 149.441357 139.699999) (xy 149.425 139.617764)
        (xy 149.425 139.617763) (xy 149.376552 139.374199) (xy 149.192001 139.097999) (xy 149.122283 139.051415) (xy 148.840706 138.769838)
        (xy 148.855 138.73533) (xy 148.855 138.12467) (xy 148.62131 137.560493) (xy 148.189507 137.12869) (xy 147.62533 136.895)
        (xy 147.215817 136.895) (xy 147.35131 136.759507) (xy 147.585 136.19533) (xy 147.585 135.58467) (xy 147.35131 135.020493)
        (xy 146.919507 134.58869) (xy 146.35533 134.355) (xy 145.881111 134.355) (xy 146.178839 133.909418) (xy 146.294092 133.33)
        (xy 146.178839 132.750582) (xy 145.850625 132.259375) (xy 145.359418 131.931161) (xy 144.926256 131.845) (xy 144.633744 131.845)
        (xy 144.200582 131.931161) (xy 143.709375 132.259375) (xy 143.51 132.557761) (xy 143.310625 132.259375) (xy 142.819418 131.931161)
        (xy 142.386256 131.845) (xy 142.093744 131.845) (xy 141.660582 131.931161) (xy 141.169375 132.259375) (xy 140.956157 132.578478)
        (xy 140.895183 132.448642) (xy 140.466924 132.058355) (xy 140.05689 131.888524) (xy 139.827 132.009845) (xy 139.827 133.203)
        (xy 139.847 133.203) (xy 139.847 133.457) (xy 139.827 133.457) (xy 139.827 134.650155) (xy 140.05689 134.771476)
        (xy 140.466924 134.601645) (xy 140.895183 134.211358) (xy 140.956157 134.081522) (xy 141.169375 134.400625) (xy 141.660582 134.728839)
        (xy 142.093744 134.815) (xy 142.386256 134.815) (xy 142.819418 134.728839) (xy 143.310625 134.400625) (xy 143.51 134.102239)
        (xy 143.709375 134.400625) (xy 144.200582 134.728839) (xy 144.633744 134.815) (xy 144.926256 134.815) (xy 144.961117 134.808066)
        (xy 144.74869 135.020493) (xy 144.515 135.58467) (xy 144.515 136.19533) (xy 144.529294 136.229839) (xy 144.434133 136.325)
        (xy 141.015603 136.325) (xy 141.00131 136.290493) (xy 140.569507 135.85869) (xy 140.00533 135.625) (xy 139.39467 135.625)
        (xy 138.830493 135.85869) (xy 138.39869 136.290493) (xy 138.165 136.85467) (xy 138.165 137.46533) (xy 138.39869 138.029507)
        (xy 138.830493 138.46131) (xy 139.39467 138.695) (xy 140.00533 138.695) (xy 140.569507 138.46131) (xy 141.00131 138.029507)
        (xy 141.015603 137.995) (xy 144.697767 137.995) (xy 144.78 138.011357) (xy 144.862233 137.995) (xy 144.862237 137.995)
        (xy 145.105801 137.946552) (xy 145.382001 137.762001) (xy 145.428587 137.69228) (xy 145.710161 137.410706) (xy 145.74467 137.425)
        (xy 146.154183 137.425) (xy 146.01869 137.560493) (xy 145.785 138.12467) (xy 145.785 138.73533) (xy 146.01869 139.299507)
        (xy 146.134944 139.415761) (xy 145.911951 139.638754) (xy 145.678261 140.202931) (xy 145.678261 140.813591) (xy 145.692555 140.8481)
        (xy 145.135655 141.405) (xy 131.03744 141.405) (xy 131.03744 141.39) (xy 130.988157 141.142235) (xy 130.847809 140.932191)
        (xy 130.637765 140.791843) (xy 130.39 140.74256) (xy 128.69 140.74256) (xy 128.442235 140.791843) (xy 128.232191 140.932191)
        (xy 128.091843 141.142235) (xy 128.04256 141.39) (xy 128.04256 143.09) (xy 128.091843 143.337765) (xy 128.232191 143.547809)
        (xy 128.442235 143.688157) (xy 128.487619 143.697184) (xy 128.469375 143.709375) (xy 128.141161 144.200582) (xy 128.025908 144.78)
        (xy 125.17 144.78) (xy 125.17 132.48) (xy 133.12256 132.48) (xy 133.12256 134.18) (xy 133.171843 134.427765)
        (xy 133.312191 134.637809) (xy 133.522235 134.778157) (xy 133.77 134.82744) (xy 135.47 134.82744) (xy 135.717765 134.778157)
        (xy 135.927809 134.637809) (xy 136.068157 134.427765) (xy 136.077184 134.382381) (xy 136.089375 134.400625) (xy 136.580582 134.728839)
        (xy 137.013744 134.815) (xy 137.306256 134.815) (xy 137.739418 134.728839) (xy 138.230625 134.400625) (xy 138.443843 134.081522)
        (xy 138.504817 134.211358) (xy 138.933076 134.601645) (xy 139.34311 134.771476) (xy 139.573 134.650155) (xy 139.573 133.457)
        (xy 139.553 133.457) (xy 139.553 133.203) (xy 139.573 133.203) (xy 139.573 132.009845) (xy 139.34311 131.888524)
        (xy 138.933076 132.058355) (xy 138.504817 132.448642) (xy 138.443843 132.578478) (xy 138.230625 132.259375) (xy 137.739418 131.931161)
        (xy 137.306256 131.845) (xy 137.013744 131.845) (xy 136.580582 131.931161) (xy 136.089375 132.259375) (xy 136.077184 132.277619)
        (xy 136.068157 132.232235) (xy 135.927809 132.022191) (xy 135.717765 131.881843) (xy 135.47 131.83256) (xy 133.77 131.83256)
        (xy 133.522235 131.881843) (xy 133.312191 132.022191) (xy 133.171843 132.232235) (xy 133.12256 132.48) (xy 125.17 132.48)
        (xy 125.17 129.869446) (xy 127.329447 127.71) (xy 133.18436 127.71)
      )
    )
  )
)
