EESchema Schematic File Version 4
LIBS:digit-node-cache
EELAYER 26 0
EELAYER END
$Descr A4 11693 8268
encoding utf-8
Sheet 1 2
Title ""
Date ""
Rev ""
Comp ""
Comment1 ""
Comment2 ""
Comment3 ""
Comment4 ""
$EndDescr
$Sheet
S 6350 2350 1000 800 
U 5AE7218A
F0 "led_matrix" 60
F1 "led_matrix.sch" 60
F2 "led_01" I L 6350 2550 60 
F3 "led_23" I L 6350 2650 60 
F4 "led_45" I L 6350 2750 60 
F5 "gnd_odd" O R 7350 2750 60 
F6 "gnd_even" O R 7350 2650 60 
F7 "led_67" I L 6350 2850 60 
F8 "led_89" I L 6350 2950 60 
$EndSheet
$Comp
L MCU_ST_STM32F0:STM32F030F4Px U1
U 1 1 5AE88544
P 3400 3050
F 0 "U1" H 3400 2064 50  0000 C CNN
F 1 "STM32F030F4Px" H 3400 1973 50  0000 C CNN
F 2 "Package_SO:TSSOP-20_4.4x6.5mm_P0.65mm" H 5000 3925 50  0001 R TNN
F 3 "http://www.st.com/st-web-ui/static/active/en/resource/technical/document/datasheet/DM00088500.pdf" H 3400 3050 50  0001 C CNN
	1    3400 3050
	1    0    0    -1  
$EndComp
$Comp
L Transistor_BJT:BC847BS Q1
U 1 1 5AE75159
P 7300 3350
F 0 "Q1" H 7491 3396 50  0000 L CNN
F 1 "BC847BS" H 7491 3305 50  0000 L CNN
F 2 "Package_TO_SOT_SMD:SOT-363_SC-70-6" H 7500 3450 50  0001 C CNN
F 3 "" H 7300 3350 50  0001 C CNN
	1    7300 3350
	1    0    0    -1  
$EndComp
Wire Wire Line
	7400 2750 7350 2750
$Comp
L Transistor_BJT:BC847BS Q1
U 2 1 5AE7533B
P 7550 3700
F 0 "Q1" H 7741 3746 50  0000 L CNN
F 1 "BC847BS" H 7741 3655 50  0000 L CNN
F 2 "Package_TO_SOT_SMD:SOT-363_SC-70-6" H 7750 3800 50  0001 C CNN
F 3 "" H 7550 3700 50  0001 C CNN
	2    7550 3700
	1    0    0    -1  
$EndComp
Wire Wire Line
	7650 2650 7350 2650
Wire Wire Line
	7400 3550 7400 3900
Wire Wire Line
	7400 3900 7650 3900
$Comp
L power:GND #PWR011
U 1 1 5AE7568B
P 7400 3900
F 0 "#PWR011" H 7400 3650 50  0001 C CNN
F 1 "GND" H 7405 3727 50  0000 C CNN
F 2 "" H 7400 3900 50  0001 C CNN
F 3 "" H 7400 3900 50  0001 C CNN
	1    7400 3900
	1    0    0    -1  
$EndComp
Connection ~ 7400 3900
Wire Wire Line
	5800 3350 7100 3350
Wire Wire Line
	5900 3700 7350 3700
Wire Wire Line
	5800 2550 6350 2550
Wire Wire Line
	5900 2650 6350 2650
Wire Wire Line
	6350 2950 6250 2950
$Comp
L device:R R1
U 1 1 5AE79FB7
P 7400 2950
F 0 "R1" H 7470 2996 50  0000 L CNN
F 1 "100" H 7470 2905 50  0000 L CNN
F 2 "Resistor_SMD:R_0603_1608Metric" V 7330 2950 50  0001 C CNN
F 3 "" H 7400 2950 50  0001 C CNN
	1    7400 2950
	1    0    0    -1  
$EndComp
Wire Wire Line
	7400 2750 7400 2800
Wire Wire Line
	7400 3100 7400 3150
$Comp
L device:R R2
U 1 1 5AE7A758
P 7650 2950
F 0 "R2" H 7720 2996 50  0000 L CNN
F 1 "100" H 7720 2905 50  0000 L CNN
F 2 "Resistor_SMD:R_0603_1608Metric" V 7580 2950 50  0001 C CNN
F 3 "" H 7650 2950 50  0001 C CNN
	1    7650 2950
	1    0    0    -1  
$EndComp
Wire Wire Line
	7650 2650 7650 2800
Wire Wire Line
	7650 3100 7650 3500
$Comp
L custom:STM32_SWD J2
U 1 1 5AE7B4F9
P 1250 2950
F 0 "J2" H 1006 3575 50  0000 C CNN
F 1 "STM32_SWD" H 1006 3484 50  0000 C CNN
F 2 "Connector_PinHeader_2.54mm:PinHeader_1x05_P2.54mm_Vertical" H 1250 2950 50  0001 C CNN
F 3 "" H 1250 2950 50  0001 C CNN
	1    1250 2950
	1    0    0    -1  
$EndComp
Wire Wire Line
	4000 3650 4000 4200
Wire Wire Line
	4000 4200 2600 4200
Wire Wire Line
	4100 3550 4100 4300
$Comp
L power:GND #PWR08
U 1 1 5AE8E4D7
P 3400 3850
F 0 "#PWR08" H 3400 3600 50  0001 C CNN
F 1 "GND" H 3405 3677 50  0000 C CNN
F 2 "" H 3400 3850 50  0001 C CNN
F 3 "" H 3400 3850 50  0001 C CNN
	1    3400 3850
	0    -1   -1   0   
$EndComp
$Comp
L device:CP C2
U 1 1 5AE8E5A1
P 3650 2050
F 0 "C2" V 3905 2050 50  0000 C CNN
F 1 "CP" V 3814 2050 50  0000 C CNN
F 2 "Capacitor_SMD:C_0603_1608Metric" H 3688 1900 50  0001 C CNN
F 3 "" H 3650 2050 50  0001 C CNN
	1    3650 2050
	0    -1   -1   0   
$EndComp
$Comp
L device:CP C3
U 1 1 5AE8E65E
P 3950 2050
F 0 "C3" V 4205 2050 50  0000 C CNN
F 1 "CP" V 4114 2050 50  0000 C CNN
F 2 "Capacitor_SMD:C_0603_1608Metric" H 3988 1900 50  0001 C CNN
F 3 "" H 3950 2050 50  0001 C CNN
	1    3950 2050
	0    -1   -1   0   
$EndComp
$Comp
L device:CP C1
U 1 1 5AE8E71F
P 3250 2050
F 0 "C1" V 2995 2050 50  0000 C CNN
F 1 "CP" V 3086 2050 50  0000 C CNN
F 2 "Capacitor_SMD:C_0603_1608Metric" H 3288 1900 50  0001 C CNN
F 3 "" H 3250 2050 50  0001 C CNN
	1    3250 2050
	0    1    1    0   
$EndComp
$Comp
L power:VDD #PWR07
U 1 1 5AE8FF5E
P 3350 1850
F 0 "#PWR07" H 3350 1700 50  0001 C CNN
F 1 "VDD" H 3367 2023 50  0000 C CNN
F 2 "" H 3350 1850 50  0001 C CNN
F 3 "" H 3350 1850 50  0001 C CNN
	1    3350 1850
	1    0    0    -1  
$EndComp
$Comp
L power:VDDA #PWR09
U 1 1 5AE90007
P 3550 1850
F 0 "#PWR09" H 3550 1700 50  0001 C CNN
F 1 "VDDA" H 3567 2023 50  0000 C CNN
F 2 "" H 3550 1850 50  0001 C CNN
F 3 "" H 3550 1850 50  0001 C CNN
	1    3550 1850
	1    0    0    -1  
$EndComp
$Comp
L conn:Conn_01x09_Male J1
U 1 1 5AE9A515
P 1050 3750
F 0 "J1" H 1156 4328 50  0000 C CNN
F 1 "Conn_01x09_Male" H 1156 4237 50  0000 C CNN
F 2 "Connector_PinHeader_2.54mm:PinHeader_1x09_P2.54mm_Vertical" H 1050 3750 50  0001 C CNN
F 3 "~" H 1050 3750 50  0001 C CNN
	1    1050 3750
	1    0    0    1   
$EndComp
Connection ~ 3400 2050
Wire Wire Line
	3350 1850 3400 1850
Wire Wire Line
	3400 1850 3400 2050
Wire Wire Line
	3550 1850 3500 1850
Wire Wire Line
	3500 1850 3500 2050
Connection ~ 3500 2050
$Comp
L power:GND #PWR06
U 1 1 5AE9CD7D
P 3100 2050
F 0 "#PWR06" H 3100 1800 50  0001 C CNN
F 1 "GND" V 3105 1922 50  0000 R CNN
F 2 "" H 3100 2050 50  0001 C CNN
F 3 "" H 3100 2050 50  0001 C CNN
	1    3100 2050
	0    1    1    0   
$EndComp
$Comp
L power:GND #PWR010
U 1 1 5AE9CDD1
P 4100 2050
F 0 "#PWR010" H 4100 1800 50  0001 C CNN
F 1 "GND" V 4105 1922 50  0000 R CNN
F 2 "" H 4100 2050 50  0001 C CNN
F 3 "" H 4100 2050 50  0001 C CNN
	1    4100 2050
	0    -1   -1   0   
$EndComp
$Comp
L power:VDDA #PWR03
U 1 1 5AEA1EB8
P 1250 3950
F 0 "#PWR03" H 1250 3800 50  0001 C CNN
F 1 "VDDA" V 1267 4078 50  0000 L CNN
F 2 "" H 1250 3950 50  0001 C CNN
F 3 "" H 1250 3950 50  0001 C CNN
	1    1250 3950
	0    1    1    0   
$EndComp
Wire Wire Line
	4100 4300 2500 4300
Wire Wire Line
	2600 4200 2600 2850
Wire Wire Line
	1250 2850 2600 2850
Wire Wire Line
	2500 4300 2500 2650
Wire Wire Line
	2500 2650 1250 2650
$Comp
L power:VDD #PWR04
U 1 1 5AEA746B
P 1250 4050
F 0 "#PWR04" H 1250 3900 50  0001 C CNN
F 1 "VDD" V 1267 4178 50  0000 L CNN
F 2 "" H 1250 4050 50  0001 C CNN
F 3 "" H 1250 4050 50  0001 C CNN
	1    1250 4050
	0    1    1    0   
$EndComp
$Comp
L power:GND #PWR05
U 1 1 5AEA74E4
P 1250 4150
F 0 "#PWR05" H 1250 3900 50  0001 C CNN
F 1 "GND" V 1255 4022 50  0000 R CNN
F 2 "" H 1250 4150 50  0001 C CNN
F 3 "" H 1250 4150 50  0001 C CNN
	1    1250 4150
	0    -1   -1   0   
$EndComp
$Comp
L power:GND #PWR01
U 1 1 5AEA75E2
P 1250 2750
F 0 "#PWR01" H 1250 2500 50  0001 C CNN
F 1 "GND" V 1255 2622 50  0000 R CNN
F 2 "" H 1250 2750 50  0001 C CNN
F 3 "" H 1250 2750 50  0001 C CNN
	1    1250 2750
	0    -1   -1   0   
$EndComp
$Comp
L power:VDD #PWR02
U 1 1 5AEA7647
P 1250 2950
F 0 "#PWR02" H 1250 2800 50  0001 C CNN
F 1 "VDD" V 1267 3078 50  0000 L CNN
F 2 "" H 1250 2950 50  0001 C CNN
F 3 "" H 1250 2950 50  0001 C CNN
	1    1250 2950
	0    1    1    0   
$EndComp
Wire Wire Line
	5900 3700 5900 3050
Wire Wire Line
	6250 2950 6250 3250
Wire Wire Line
	6150 3150 6150 2850
Wire Wire Line
	6150 2850 6350 2850
Wire Wire Line
	1250 3850 2700 3850
Wire Wire Line
	2700 3850 2700 2300
Wire Wire Line
	2700 2300 3950 2300
Wire Wire Line
	3950 2300 3950 2550
Wire Wire Line
	4300 3350 4300 4500
Wire Wire Line
	4200 4400 4200 3450
Wire Wire Line
	3500 2050 3500 2350
Wire Wire Line
	3900 3250 6250 3250
Wire Wire Line
	3900 3350 4300 3350
Wire Wire Line
	3900 3450 4200 3450
Wire Wire Line
	4000 3650 3900 3650
Wire Wire Line
	3900 3150 6150 3150
Wire Wire Line
	3400 2050 3400 2350
Wire Wire Line
	3900 3550 4100 3550
Wire Wire Line
	3900 2550 3950 2550
NoConn ~ 2900 2750
Wire Wire Line
	1250 2550 2900 2550
Wire Wire Line
	2900 3650 2800 3650
Wire Wire Line
	2800 3650 2800 2200
Wire Wire Line
	2800 2200 5800 2200
Wire Wire Line
	5800 2200 5800 2550
Wire Wire Line
	4400 4600 4400 2650
Wire Wire Line
	4400 2650 3900 2650
Wire Wire Line
	2300 3450 2300 3750
Wire Wire Line
	2300 3750 1250 3750
Wire Wire Line
	2300 3450 2900 3450
Wire Wire Line
	2200 3350 2200 3650
Wire Wire Line
	2200 3650 1250 3650
Wire Wire Line
	2200 3350 2900 3350
Wire Wire Line
	1900 4600 1900 3550
Wire Wire Line
	1900 3550 1250 3550
Wire Wire Line
	1900 4600 4400 4600
Wire Wire Line
	2000 4500 2000 3450
Wire Wire Line
	2000 3450 1250 3450
Wire Wire Line
	2000 4500 4300 4500
Wire Wire Line
	2100 4400 2100 3350
Wire Wire Line
	2100 3350 1250 3350
Wire Wire Line
	2100 4400 4200 4400
Wire Wire Line
	5900 2650 5900 2750
Wire Wire Line
	5900 2750 3900 2750
Wire Wire Line
	6350 2750 6000 2750
Wire Wire Line
	6000 2750 6000 2850
Wire Wire Line
	6000 2850 3900 2850
Wire Wire Line
	5800 2950 3900 2950
Wire Wire Line
	5800 2950 5800 3350
Wire Wire Line
	3900 3050 5900 3050
$EndSCHEMATC
