EESchema Schematic File Version 4
LIBS:digit-node-cache
EELAYER 26 0
EELAYER END
$Descr A4 11693 8268
encoding utf-8
Sheet 2 2
Title ""
Date ""
Rev ""
Comp ""
Comment1 ""
Comment2 ""
Comment3 ""
Comment4 ""
$EndDescr
Text HLabel 1000 650  0    60   Input ~ 0
led_01
Text HLabel 1000 1250 0    60   Input ~ 0
led_23
Text HLabel 1000 1850 0    60   Input ~ 0
led_45
Text HLabel 2450 650  2    60   Output ~ 0
gnd_odd
Text HLabel 2450 950  2    60   Output ~ 0
gnd_even
$Comp
L device:LED D1
U 1 1 5AE72670
P 1600 650
F 0 "D1" H 1600 750 50  0000 C CNN
F 1 "LED_0" H 1600 550 50  0000 C CNN
F 2 "LED_SMD:LED_0603_1608Metric" H 1600 650 50  0001 C CNN
F 3 "" H 1600 650 50  0001 C CNN
	1    1600 650 
	-1   0    0    -1  
$EndComp
$Comp
L device:LED D2
U 1 1 5AE72724
P 1600 950
F 0 "D2" H 1600 1050 50  0000 C CNN
F 1 "LED_1" H 1600 850 50  0000 C CNN
F 2 "LED_SMD:LED_0603_1608Metric" H 1600 950 50  0001 C CNN
F 3 "" H 1600 950 50  0001 C CNN
	1    1600 950 
	-1   0    0    -1  
$EndComp
Wire Wire Line
	1450 650  1450 950 
Wire Wire Line
	1000 650  1450 650 
Wire Wire Line
	1750 650  2000 650 
Wire Wire Line
	1750 950  2100 950 
$Comp
L device:LED D3
U 1 1 5AE72957
P 1600 1250
F 0 "D3" H 1600 1350 50  0000 C CNN
F 1 "LED_2" H 1600 1150 50  0000 C CNN
F 2 "LED_SMD:LED_0603_1608Metric" H 1600 1250 50  0001 C CNN
F 3 "" H 1600 1250 50  0001 C CNN
	1    1600 1250
	-1   0    0    -1  
$EndComp
Wire Wire Line
	1000 1250 1450 1250
$Comp
L device:LED D4
U 1 1 5AE729C8
P 1600 1550
F 0 "D4" H 1600 1650 50  0000 C CNN
F 1 "LED_3" H 1600 1450 50  0000 C CNN
F 2 "LED_SMD:LED_0603_1608Metric" H 1600 1550 50  0001 C CNN
F 3 "" H 1600 1550 50  0001 C CNN
	1    1600 1550
	-1   0    0    -1  
$EndComp
Wire Wire Line
	1450 1250 1450 1550
Wire Wire Line
	1750 1250 2000 1250
Wire Wire Line
	1750 1550 2100 1550
$Comp
L device:LED D5
U 1 1 5AE72A64
P 1600 1850
F 0 "D5" H 1600 1950 50  0000 C CNN
F 1 "LED_4" H 1600 1750 50  0000 C CNN
F 2 "LED_SMD:LED_0603_1608Metric" H 1600 1850 50  0001 C CNN
F 3 "" H 1600 1850 50  0001 C CNN
	1    1600 1850
	-1   0    0    -1  
$EndComp
$Comp
L device:LED D6
U 1 1 5AE72A97
P 1600 2150
F 0 "D6" H 1600 2250 50  0000 C CNN
F 1 "LED_5" H 1600 2050 50  0000 C CNN
F 2 "LED_SMD:LED_0603_1608Metric" H 1600 2150 50  0001 C CNN
F 3 "" H 1600 2150 50  0001 C CNN
	1    1600 2150
	-1   0    0    -1  
$EndComp
Wire Wire Line
	1000 1850 1450 1850
Wire Wire Line
	1450 1850 1450 2150
Connection ~ 2000 1250
Connection ~ 2100 1550
Text HLabel 1000 2450 0    60   Input ~ 0
led_67
$Comp
L device:LED D7
U 1 1 5AE72D33
P 1600 2450
F 0 "D7" H 1600 2550 50  0000 C CNN
F 1 "LED_6" H 1600 2350 50  0000 C CNN
F 2 "LED_SMD:LED_0603_1608Metric" H 1600 2450 50  0001 C CNN
F 3 "" H 1600 2450 50  0001 C CNN
	1    1600 2450
	-1   0    0    -1  
$EndComp
$Comp
L device:LED D8
U 1 1 5AE72D3A
P 1600 2750
F 0 "D8" H 1600 2850 50  0000 C CNN
F 1 "LED_7" H 1600 2650 50  0000 C CNN
F 2 "LED_SMD:LED_0603_1608Metric" H 1600 2750 50  0001 C CNN
F 3 "" H 1600 2750 50  0001 C CNN
	1    1600 2750
	-1   0    0    -1  
$EndComp
Wire Wire Line
	1000 2450 1450 2450
Wire Wire Line
	1450 2450 1450 2750
Wire Wire Line
	2000 2450 1750 2450
Wire Wire Line
	2100 2750 1750 2750
Text HLabel 1000 3050 0    60   Input ~ 0
led_89
$Comp
L device:LED D9
U 1 1 5AE72DF4
P 1600 3050
F 0 "D9" H 1600 3150 50  0000 C CNN
F 1 "LED_8" H 1600 2950 50  0000 C CNN
F 2 "LED_SMD:LED_0603_1608Metric" H 1600 3050 50  0001 C CNN
F 3 "" H 1600 3050 50  0001 C CNN
	1    1600 3050
	-1   0    0    -1  
$EndComp
$Comp
L device:LED D10
U 1 1 5AE72DFB
P 1600 3350
F 0 "D10" H 1600 3450 50  0000 C CNN
F 1 "LED_9" H 1600 3250 50  0000 C CNN
F 2 "LED_SMD:LED_0603_1608Metric" H 1600 3350 50  0001 C CNN
F 3 "" H 1600 3350 50  0001 C CNN
	1    1600 3350
	-1   0    0    -1  
$EndComp
Wire Wire Line
	1000 3050 1450 3050
Wire Wire Line
	1450 3050 1450 3350
Wire Wire Line
	2000 3050 1750 3050
Wire Wire Line
	2100 3350 1750 3350
Wire Wire Line
	2000 1850 1750 1850
Wire Wire Line
	2000 650  2000 1250
Wire Wire Line
	2100 2150 1750 2150
Wire Wire Line
	2100 950  2100 1550
Connection ~ 2000 1850
Connection ~ 2100 2150
Connection ~ 2000 2450
Connection ~ 2100 2750
Wire Wire Line
	2000 650  2450 650 
Wire Wire Line
	2100 950  2450 950 
Wire Wire Line
	2000 1250 2000 1850
Wire Wire Line
	2100 1550 2100 2150
Wire Wire Line
	2000 1850 2000 2450
Wire Wire Line
	2100 2150 2100 2750
Wire Wire Line
	2000 2450 2000 3050
Wire Wire Line
	2100 2750 2100 3350
Connection ~ 2000 650 
Connection ~ 2100 950 
$EndSCHEMATC
