EESchema Schematic File Version 4
EELAYER 26 0
EELAYER END
$Descr A4 11693 8268
encoding utf-8
Sheet 1 1
Title ""
Date ""
Rev ""
Comp ""
Comment1 ""
Comment2 ""
Comment3 ""
Comment4 ""
$EndDescr
$Comp
L custom:Huzzah32 U2
U 1 1 5AFF145E
P 2350 2200
F 0 "U2" H 2122 2521 50  0000 R CNN
F 1 "Huzzah32_fake" H 2122 2430 50  0000 R CNN
F 2 "custom:Adafruit_HUZZAH32" H 2350 2200 50  0001 C CNN
F 3 "" H 2350 2200 50  0001 C CNN
	1    2350 2200
	1    0    0    -1  
$EndComp
$Comp
L custom:Huzzah32 U3
U 1 1 5AFF1502
P 3500 2200
F 0 "U3" H 3272 2521 50  0000 R CNN
F 1 "Huzzah32_real" H 3272 2430 50  0000 R CNN
F 2 "custom:Adafruit_HUZZAH32" H 3500 2200 50  0001 C CNN
F 3 "" H 3500 2200 50  0001 C CNN
	1    3500 2200
	1    0    0    -1  
$EndComp
Wire Wire Line
	2650 1950 2650 2800
Wire Wire Line
	2650 2800 3800 2800
Wire Wire Line
	3800 2800 3800 1950
Wire Wire Line
	2650 1850 2750 1850
Wire Wire Line
	2750 1850 2750 2900
Wire Wire Line
	2750 2900 3900 2900
Wire Wire Line
	3900 2900 3900 1850
Wire Wire Line
	3900 1850 3800 1850
Wire Wire Line
	2650 1750 2850 1750
Wire Wire Line
	2850 1750 2850 3000
Wire Wire Line
	2850 3000 4000 3000
Wire Wire Line
	4000 3000 4000 1750
Wire Wire Line
	4000 1750 3800 1750
$Comp
L power:GND #PWR08
U 1 1 5AFF1D84
P 3500 2300
F 0 "#PWR08" H 3500 2050 50  0001 C CNN
F 1 "GND" H 3505 2127 50  0000 C CNN
F 2 "" H 3500 2300 50  0001 C CNN
F 3 "" H 3500 2300 50  0001 C CNN
	1    3500 2300
	1    0    0    -1  
$EndComp
$Comp
L power:GND #PWR07
U 1 1 5AFF1DBE
P 2350 2300
F 0 "#PWR07" H 2350 2050 50  0001 C CNN
F 1 "GND" H 2355 2127 50  0000 C CNN
F 2 "" H 2350 2300 50  0001 C CNN
F 3 "" H 2350 2300 50  0001 C CNN
	1    2350 2300
	1    0    0    -1  
$EndComp
$Comp
L power:VBUS #PWR01
U 1 1 5AFF1E1D
P 2250 1550
F 0 "#PWR01" H 2250 1400 50  0001 C CNN
F 1 "VBUS" H 2265 1723 50  0000 C CNN
F 2 "" H 2250 1550 50  0001 C CNN
F 3 "" H 2250 1550 50  0001 C CNN
	1    2250 1550
	1    0    0    -1  
$EndComp
$Comp
L power:VBUS #PWR03
U 1 1 5AFF1E45
P 3400 1550
F 0 "#PWR03" H 3400 1400 50  0001 C CNN
F 1 "VBUS" H 3415 1723 50  0000 C CNN
F 2 "" H 3400 1550 50  0001 C CNN
F 3 "" H 3400 1550 50  0001 C CNN
	1    3400 1550
	1    0    0    -1  
$EndComp
$Comp
L power:VDD #PWR02
U 1 1 5AFF1EBA
P 2350 1550
F 0 "#PWR02" H 2350 1400 50  0001 C CNN
F 1 "VDD" V 2367 1678 50  0000 L CNN
F 2 "" H 2350 1550 50  0001 C CNN
F 3 "" H 2350 1550 50  0001 C CNN
	1    2350 1550
	0    1    1    0   
$EndComp
$Comp
L power:VBUS #PWR05
U 1 1 5AFF20E0
P 5900 1950
F 0 "#PWR05" H 5900 1800 50  0001 C CNN
F 1 "VBUS" V 5915 2077 50  0000 L CNN
F 2 "" H 5900 1950 50  0001 C CNN
F 3 "" H 5900 1950 50  0001 C CNN
	1    5900 1950
	0    -1   -1   0   
$EndComp
$Comp
L device:C C2
U 1 1 5AFF2160
P 6000 2100
F 0 "C2" H 6115 2146 50  0000 L CNN
F 1 "0.1µF" H 6115 2055 50  0000 L CNN
F 2 "Capacitor_SMD:C_0603_1608Metric_Pad0.99x1.00mm_HandSolder" H 6038 1950 50  0001 C CNN
F 3 "" H 6000 2100 50  0001 C CNN
	1    6000 2100
	1    0    0    -1  
$EndComp
$Comp
L Regulator_Linear:LM317_3PinPackage U1
U 1 1 5AFF2333
P 6450 1650
F 0 "U1" H 6450 1892 50  0000 C CNN
F 1 "LM317_3PinPackage" H 6450 1801 50  0000 C CNN
F 2 "Package_TO_SOT_THT:TO-220-3_Vertical" H 6450 1900 50  0001 C CIN
F 3 "http://www.ti.com/lit/ds/symlink/lm317.pdf" H 6450 1650 50  0001 C CNN
	1    6450 1650
	1    0    0    -1  
$EndComp
Wire Wire Line
	5900 1950 6000 1950
Connection ~ 6000 1950
Wire Wire Line
	6000 1950 6150 1950
$Comp
L device:R R2
U 1 1 5AFF24B5
P 6450 2100
F 0 "R2" H 6520 2146 50  0000 L CNN
F 1 "390" H 6520 2055 50  0000 L CNN
F 2 "Resistor_SMD:R_0603_1608Metric_Pad0.99x1.00mm_HandSolder" V 6380 2100 50  0001 C CNN
F 3 "" H 6450 2100 50  0001 C CNN
	1    6450 2100
	1    0    0    -1  
$EndComp
Wire Wire Line
	6150 1650 6150 1950
$Comp
L device:R R1
U 1 1 5AFF268B
P 6750 1800
F 0 "R1" H 6820 1846 50  0000 L CNN
F 1 "240" H 6820 1755 50  0000 L CNN
F 2 "Resistor_SMD:R_0603_1608Metric_Pad0.99x1.00mm_HandSolder" V 6680 1800 50  0001 C CNN
F 3 "" H 6750 1800 50  0001 C CNN
	1    6750 1800
	1    0    0    -1  
$EndComp
Wire Wire Line
	6750 1950 6450 1950
Connection ~ 6450 1950
$Comp
L device:C C1
U 1 1 5AFF289A
P 7100 1800
F 0 "C1" H 7215 1846 50  0000 L CNN
F 1 "1.0µF" H 7215 1755 50  0000 L CNN
F 2 "Capacitor_SMD:C_0603_1608Metric_Pad0.99x1.00mm_HandSolder" H 7138 1650 50  0001 C CNN
F 3 "" H 7100 1800 50  0001 C CNN
	1    7100 1800
	1    0    0    -1  
$EndComp
Wire Wire Line
	7100 1650 6750 1650
Connection ~ 6750 1650
Wire Wire Line
	7100 1950 7100 2250
Wire Wire Line
	7100 2250 6450 2250
Connection ~ 6450 2250
Wire Wire Line
	6450 2250 6000 2250
$Comp
L power:GND #PWR06
U 1 1 5AFF2C2F
P 6450 2250
F 0 "#PWR06" H 6450 2000 50  0001 C CNN
F 1 "GND" H 6455 2077 50  0000 C CNN
F 2 "" H 6450 2250 50  0001 C CNN
F 3 "" H 6450 2250 50  0001 C CNN
	1    6450 2250
	1    0    0    -1  
$EndComp
$Comp
L power:VDD #PWR09
U 1 1 5AFF2D85
P 5100 3050
F 0 "#PWR09" H 5100 2900 50  0001 C CNN
F 1 "VDD" V 5118 3177 50  0000 L CNN
F 2 "" H 5100 3050 50  0001 C CNN
F 3 "" H 5100 3050 50  0001 C CNN
	1    5100 3050
	0    -1   -1   0   
$EndComp
$Comp
L device:LED D1
U 1 1 5AFF2E3A
P 5250 3050
F 0 "D1" H 5242 2795 50  0000 C CNN
F 1 "LED_vdd" H 5242 2886 50  0000 C CNN
F 2 "LED_SMD:LED_0603_1608Metric_Pad0.82x1.00mm_HandSolder" H 5250 3050 50  0001 C CNN
F 3 "" H 5250 3050 50  0001 C CNN
	1    5250 3050
	-1   0    0    1   
$EndComp
$Comp
L device:R R3
U 1 1 5AFF2EB3
P 5550 3050
F 0 "R3" V 5343 3050 50  0000 C CNN
F 1 "100" V 5434 3050 50  0000 C CNN
F 2 "Resistor_SMD:R_0603_1608Metric_Pad0.99x1.00mm_HandSolder" V 5480 3050 50  0001 C CNN
F 3 "" H 5550 3050 50  0001 C CNN
	1    5550 3050
	0    1    1    0   
$EndComp
$Comp
L power:GND #PWR010
U 1 1 5AFF2F67
P 5700 3050
F 0 "#PWR010" H 5700 2800 50  0001 C CNN
F 1 "GND" V 5705 2922 50  0000 R CNN
F 2 "" H 5700 3050 50  0001 C CNN
F 3 "" H 5700 3050 50  0001 C CNN
	1    5700 3050
	0    -1   -1   0   
$EndComp
$Comp
L power:VDD #PWR04
U 1 1 5AFF3380
P 7100 1650
F 0 "#PWR04" H 7100 1500 50  0001 C CNN
F 1 "VDD" H 7117 1823 50  0000 C CNN
F 2 "" H 7100 1650 50  0001 C CNN
F 3 "" H 7100 1650 50  0001 C CNN
	1    7100 1650
	1    0    0    -1  
$EndComp
Connection ~ 7100 1650
NoConn ~ 3500 1550
Text Label 6500 1950 0    50   ~ 0
Adj
$Comp
L device:LED D2
U 1 1 5AFF4A69
P 5250 3400
F 0 "D2" H 5242 3145 50  0000 C CNN
F 1 "LED_nReset" H 5242 3236 50  0000 C CNN
F 2 "LED_SMD:LED_0603_1608Metric_Pad0.82x1.00mm_HandSolder" H 5250 3400 50  0001 C CNN
F 3 "" H 5250 3400 50  0001 C CNN
	1    5250 3400
	-1   0    0    1   
$EndComp
$Comp
L device:R R4
U 1 1 5AFF4ACE
P 5550 3400
F 0 "R4" V 5343 3400 50  0000 C CNN
F 1 "100" V 5434 3400 50  0000 C CNN
F 2 "Resistor_SMD:R_0603_1608Metric_Pad0.99x1.00mm_HandSolder" V 5480 3400 50  0001 C CNN
F 3 "" H 5550 3400 50  0001 C CNN
	1    5550 3400
	0    1    1    0   
$EndComp
Wire Wire Line
	5700 3400 5700 3050
Connection ~ 5700 3050
Wire Wire Line
	5100 3400 3800 3400
Wire Wire Line
	3800 3400 3800 2800
Connection ~ 3800 2800
$EndSCHEMATC
